<?xml version="1.0" encoding="UTF-8" standalone="no"?>
<svg
   xmlns:dc="http://purl.org/dc/elements/1.1/"
   xmlns:cc="http://creativecommons.org/ns#"
   xmlns:rdf="http://www.w3.org/1999/02/22-rdf-syntax-ns#"
   xmlns:svg="http://www.w3.org/2000/svg"
   xmlns="http://www.w3.org/2000/svg"
   xmlns:sodipodi="http://sodipodi.sourceforge.net/DTD/sodipodi-0.dtd"
   xmlns:inkscape="http://www.inkscape.org/namespaces/inkscape"
   width="500"
   height="850"
   id="svg2"
   version="1.1"
   inkscape:version="1.0.2 (e86c870879, 2021-01-15)"
   sodipodi:docname="glyph_shaping_05.svg"
   viewBox="0 0 500 850">
  <text
     xml:space="preserve"
     style="font-size:16px;line-height:1.25;font-family:'DejaVu Sans';-inkscape-font-specification:'DejaVu Sans';letter-spacing:0px"
     x="150"
     y="155"
     id="text9359-1"><tspan
       sodipodi:role="line"
       x="150"
       y="155"
       id="tspan10115-9">Place 'x' horizontal origin at vertical text</tspan><tspan
       sodipodi:role="line"
       x="150"
       y="175"
       id="tspan12131">alignment point (red circle).</tspan></text>
  <defs
     id="defs4">
    <marker
       style="overflow:visible"
       id="marker19669"
       refX="0"
       refY="0"
       orient="auto"
       inkscape:stockid="Arrow2Lend"
       inkscape:isstock="true">
      <path
         transform="matrix(-1.1,0,0,-1.1,-1.1,0)"
         d="M 8.7185878,4.0337352 -2.2072895,0.01601326 8.7185884,-4.0017078 c -1.7454984,2.3720609 -1.7354408,5.6174519 -6e-7,8.035443 z"
         style="fill:#0000ff;fill-opacity:1;fill-rule:evenodd;stroke:#0000ff;stroke-width:0.625;stroke-linejoin:round;stroke-opacity:1"
         id="path19667" />
    </marker>
    <marker
       style="overflow:visible"
       id="marker19229"
       refX="0"
       refY="0"
       orient="auto"
       inkscape:stockid="Arrow2Lend"
       inkscape:isstock="true">
      <path
         transform="matrix(-1.1,0,0,-1.1,-1.1,0)"
         d="M 8.7185878,4.0337352 -2.2072895,0.01601326 8.7185884,-4.0017078 c -1.7454984,2.3720609 -1.7354408,5.6174519 -6e-7,8.035443 z"
         style="fill:#0000ff;fill-opacity:1;fill-rule:evenodd;stroke:#0000ff;stroke-width:0.625;stroke-linejoin:round;stroke-opacity:1"
         id="path19227" />
    </marker>
    <marker
       style="overflow:visible"
       id="marker15552"
       refX="0"
       refY="0"
       orient="auto"
       inkscape:stockid="Arrow2Lend"
       inkscape:isstock="true">
      <path
         transform="matrix(-1.1,0,0,-1.1,-1.1,0)"
         d="M 8.7185878,4.0337352 -2.2072895,0.01601326 8.7185884,-4.0017078 c -1.7454984,2.3720609 -1.7354408,5.6174519 -6e-7,8.035443 z"
         style="fill:#0000ff;fill-opacity:1;fill-rule:evenodd;stroke:#0000ff;stroke-width:0.625;stroke-linejoin:round;stroke-opacity:1"
         id="path15550" />
    </marker>
    <marker
       style="overflow:visible"
       id="marker15404"
       refX="0"
       refY="0"
       orient="auto"
       inkscape:stockid="Arrow2Lend"
       inkscape:isstock="true"
       inkscape:collect="always">
      <path
         transform="matrix(-1.1,0,0,-1.1,-1.1,0)"
         d="M 8.7185878,4.0337352 -2.2072895,0.01601326 8.7185884,-4.0017078 c -1.7454984,2.3720609 -1.7354408,5.6174519 -6e-7,8.035443 z"
         style="fill:#0000ff;fill-opacity:1;fill-rule:evenodd;stroke:#0000ff;stroke-width:0.625;stroke-linejoin:round;stroke-opacity:1"
         id="path15402" />
    </marker>
    <marker
       style="overflow:visible"
       id="marker14545"
       refX="0"
       refY="0"
       orient="auto"
       inkscape:stockid="Arrow2Lend"
       inkscape:isstock="true">
      <path
         transform="matrix(-1.1,0,0,-1.1,-1.1,0)"
         d="M 8.7185878,4.0337352 -2.2072895,0.01601326 8.7185884,-4.0017078 c -1.7454984,2.3720609 -1.7354408,5.6174519 -6e-7,8.035443 z"
         style="fill:#0000ff;fill-opacity:1;fill-rule:evenodd;stroke:#0000ff;stroke-width:0.625;stroke-linejoin:round;stroke-opacity:1"
         id="path14543" />
    </marker>
    <marker
       style="overflow:visible"
       id="marker13638"
       refX="0"
       refY="0"
       orient="auto"
       inkscape:stockid="Arrow2Lend"
       inkscape:isstock="true">
      <path
         transform="matrix(-1.1,0,0,-1.1,-1.1,0)"
         d="M 8.7185878,4.0337352 -2.2072895,0.01601326 8.7185884,-4.0017078 c -1.7454984,2.3720609 -1.7354408,5.6174519 -6e-7,8.035443 z"
         style="fill:#0000ff;fill-opacity:1;fill-rule:evenodd;stroke:#0000ff;stroke-width:0.625;stroke-linejoin:round;stroke-opacity:1"
         id="path13636" />
    </marker>
    <marker
       style="overflow:visible"
       id="marker13212"
       refX="0"
       refY="0"
       orient="auto"
       inkscape:stockid="Arrow2Lend"
       inkscape:isstock="true">
      <path
         transform="matrix(-1.1,0,0,-1.1,-1.1,0)"
         d="M 8.7185878,4.0337352 -2.2072895,0.01601326 8.7185884,-4.0017078 c -1.7454984,2.3720609 -1.7354408,5.6174519 -6e-7,8.035443 z"
         style="fill:#000000;fill-opacity:1;fill-rule:evenodd;stroke:#000000;stroke-width:0.625;stroke-linejoin:round;stroke-opacity:1"
         id="path13210" />
    </marker>
    <marker
       style="overflow:visible"
       id="marker12954"
       refX="0"
       refY="0"
       orient="auto"
       inkscape:stockid="Arrow2Lend"
       inkscape:isstock="true"
       inkscape:collect="always">
      <path
         transform="matrix(-1.1,0,0,-1.1,-1.1,0)"
         d="M 8.7185878,4.0337352 -2.2072895,0.01601326 8.7185884,-4.0017078 c -1.7454984,2.3720609 -1.7354408,5.6174519 -6e-7,8.035443 z"
         style="fill:#000000;fill-opacity:1;fill-rule:evenodd;stroke:#000000;stroke-width:0.625;stroke-linejoin:round;stroke-opacity:1"
         id="path12952" />
    </marker>
    <marker
       style="overflow:visible"
       id="marker9518"
       refX="0"
       refY="0"
       orient="auto"
       inkscape:stockid="Arrow2Lend"
       inkscape:isstock="true">
      <path
         transform="matrix(-1.1,0,0,-1.1,-1.1,0)"
         d="M 8.7185878,4.0337352 -2.2072895,0.01601326 8.7185884,-4.0017078 c -1.7454984,2.3720609 -1.7354408,5.6174519 -6e-7,8.035443 z"
         style="fill:#00ff00;fill-opacity:1;fill-rule:evenodd;stroke:#00ff00;stroke-width:0.625;stroke-linejoin:round;stroke-opacity:1"
         id="path9516" />
    </marker>
    <marker
       style="overflow:visible"
       id="marker8465"
       refX="0"
       refY="0"
       orient="auto"
       inkscape:stockid="Arrow2Lend"
       inkscape:isstock="true">
      <path
         transform="matrix(-1.1,0,0,-1.1,-1.1,0)"
         d="M 8.7185878,4.0337352 -2.2072895,0.01601326 8.7185884,-4.0017078 c -1.7454984,2.3720609 -1.7354408,5.6174519 -6e-7,8.035443 z"
         style="fill:#000000;fill-opacity:1;fill-rule:evenodd;stroke:#000000;stroke-width:0.625;stroke-linejoin:round;stroke-opacity:1"
         id="path8463" />
    </marker>
    <marker
       style="overflow:visible"
       id="marker8455"
       refX="0"
       refY="0"
       orient="auto"
       inkscape:stockid="Arrow2Lend"
       inkscape:isstock="true">
      <path
         transform="matrix(-1.1,0,0,-1.1,-1.1,0)"
         d="M 8.7185878,4.0337352 -2.2072895,0.01601326 8.7185884,-4.0017078 c -1.7454984,2.3720609 -1.7354408,5.6174519 -6e-7,8.035443 z"
         style="fill:#000000;fill-opacity:1;fill-rule:evenodd;stroke:#000000;stroke-width:0.625;stroke-linejoin:round;stroke-opacity:1"
         id="path8453" />
    </marker>
    <marker
       style="overflow:visible"
       id="marker7891"
       refX="0"
       refY="0"
       orient="auto"
       inkscape:stockid="Arrow2Lend"
       inkscape:isstock="true">
      <path
         transform="matrix(-1.1,0,0,-1.1,-1.1,0)"
         d="M 8.7185878,4.0337352 -2.2072895,0.01601326 8.7185884,-4.0017078 c -1.7454984,2.3720609 -1.7354408,5.6174519 -6e-7,8.035443 z"
         style="fill:#000000;fill-opacity:1;fill-rule:evenodd;stroke:#000000;stroke-width:0.625;stroke-linejoin:round;stroke-opacity:1"
         id="path7889" />
    </marker>
    <marker
       style="overflow:visible"
       id="marker7881"
       refX="0"
       refY="0"
       orient="auto"
       inkscape:stockid="Arrow2Lend"
       inkscape:isstock="true">
      <path
         transform="matrix(-1.1,0,0,-1.1,-1.1,0)"
         d="M 8.7185878,4.0337352 -2.2072895,0.01601326 8.7185884,-4.0017078 c -1.7454984,2.3720609 -1.7354408,5.6174519 -6e-7,8.035443 z"
         style="fill:#000000;fill-opacity:1;fill-rule:evenodd;stroke:#000000;stroke-width:0.625;stroke-linejoin:round;stroke-opacity:1"
         id="path7879" />
    </marker>
    <marker
       style="overflow:visible"
       id="marker7871"
       refX="0"
       refY="0"
       orient="auto"
       inkscape:stockid="Arrow2Lend"
       inkscape:isstock="true">
      <path
         transform="matrix(-1.1,0,0,-1.1,-1.1,0)"
         d="M 8.7185878,4.0337352 -2.2072895,0.01601326 8.7185884,-4.0017078 c -1.7454984,2.3720609 -1.7354408,5.6174519 -6e-7,8.035443 z"
         style="fill:#000000;fill-opacity:1;fill-rule:evenodd;stroke:#000000;stroke-width:0.625;stroke-linejoin:round;stroke-opacity:1"
         id="path7869" />
    </marker>
    <marker
       style="overflow:visible"
       id="marker6055"
       refX="0"
       refY="0"
       orient="auto"
       inkscape:stockid="Arrow1Send"
       inkscape:isstock="true">
      <path
         transform="matrix(-0.2,0,0,-0.2,-1.2,0)"
         style="fill:#000000;fill-opacity:1;fill-rule:evenodd;stroke:#000000;stroke-width:1pt;stroke-opacity:1"
         d="M 0,0 5,-5 -12.5,0 5,5 Z"
         id="path6053" />
    </marker>
    <marker
       style="overflow:visible"
       id="marker6045"
       refX="0"
       refY="0"
       orient="auto"
       inkscape:stockid="Arrow1Sstart"
       inkscape:isstock="true">
      <path
         transform="matrix(0.2,0,0,0.2,1.2,0)"
         style="fill:#000000;fill-opacity:1;fill-rule:evenodd;stroke:#000000;stroke-width:1pt;stroke-opacity:1"
         d="M 0,0 5,-5 -12.5,0 5,5 Z"
         id="path6043" />
    </marker>
    <marker
       style="overflow:visible"
       id="marker5618"
       refX="0"
       refY="0"
       orient="auto"
       inkscape:stockid="Arrow1Send"
       inkscape:isstock="true">
      <path
         transform="matrix(-0.2,0,0,-0.2,-1.2,0)"
         style="fill:#000000;fill-opacity:1;fill-rule:evenodd;stroke:#000000;stroke-width:1pt;stroke-opacity:1"
         d="M 0,0 5,-5 -12.5,0 5,5 Z"
         id="path5616" />
    </marker>
    <marker
       style="overflow:visible"
       id="marker5608"
       refX="0"
       refY="0"
       orient="auto"
       inkscape:stockid="Arrow1Sstart"
       inkscape:isstock="true">
      <path
         transform="matrix(0.2,0,0,0.2,1.2,0)"
         style="fill:#000000;fill-opacity:1;fill-rule:evenodd;stroke:#000000;stroke-width:1pt;stroke-opacity:1"
         d="M 0,0 5,-5 -12.5,0 5,5 Z"
         id="path5606" />
    </marker>
    <marker
       style="overflow:visible"
       id="marker5122"
       refX="0"
       refY="0"
       orient="auto"
       inkscape:stockid="Arrow1Send"
       inkscape:isstock="true">
      <path
         transform="matrix(-0.2,0,0,-0.2,-1.2,0)"
         style="fill:#000000;fill-opacity:1;fill-rule:evenodd;stroke:#000000;stroke-width:1pt;stroke-opacity:1"
         d="M 0,0 5,-5 -12.5,0 5,5 Z"
         id="path5120" />
    </marker>
    <marker
       style="overflow:visible"
       id="marker5112"
       refX="0"
       refY="0"
       orient="auto"
       inkscape:stockid="Arrow1Send"
       inkscape:isstock="true">
      <path
         transform="matrix(-0.2,0,0,-0.2,-1.2,0)"
         style="fill:#000000;fill-opacity:1;fill-rule:evenodd;stroke:#000000;stroke-width:1pt;stroke-opacity:1"
         d="M 0,0 5,-5 -12.5,0 5,5 Z"
         id="path5110" />
    </marker>
    <marker
       style="overflow:visible"
       id="marker4303"
       refX="0"
       refY="0"
       orient="auto"
       inkscape:stockid="Arrow1Send"
       inkscape:isstock="true">
      <path
         transform="matrix(-0.2,0,0,-0.2,-1.2,0)"
         style="fill:#000000;fill-opacity:1;fill-rule:evenodd;stroke:#000000;stroke-width:1pt;stroke-opacity:1"
         d="M 0,0 5,-5 -12.5,0 5,5 Z"
         id="path4301" />
    </marker>
    <marker
       style="overflow:visible"
       id="marker4293"
       refX="0"
       refY="0"
       orient="auto"
       inkscape:stockid="Arrow1Sstart"
       inkscape:isstock="true">
      <path
         transform="matrix(0.2,0,0,0.2,1.2,0)"
         style="fill:#000000;fill-opacity:1;fill-rule:evenodd;stroke:#000000;stroke-width:1pt;stroke-opacity:1"
         d="M 0,0 5,-5 -12.5,0 5,5 Z"
         id="path4291" />
    </marker>
    <marker
       style="overflow:visible"
       id="marker3566"
       refX="0"
       refY="0"
       orient="auto"
       inkscape:stockid="Arrow1Send"
       inkscape:isstock="true">
      <path
         transform="matrix(-0.2,0,0,-0.2,-1.2,0)"
         style="fill:#000000;fill-opacity:1;fill-rule:evenodd;stroke:#000000;stroke-width:1pt;stroke-opacity:1"
         d="M 0,0 5,-5 -12.5,0 5,5 Z"
         id="path3564" />
    </marker>
    <marker
       style="overflow:visible"
       id="marker3556"
       refX="0"
       refY="0"
       orient="auto"
       inkscape:stockid="Arrow1Send"
       inkscape:isstock="true">
      <path
         transform="matrix(-0.2,0,0,-0.2,-1.2,0)"
         style="fill:#000000;fill-opacity:1;fill-rule:evenodd;stroke:#000000;stroke-width:1pt;stroke-opacity:1"
         d="M 0,0 5,-5 -12.5,0 5,5 Z"
         id="path3554" />
    </marker>
    <marker
       style="overflow:visible"
       id="marker3546"
       refX="0"
       refY="0"
       orient="auto"
       inkscape:stockid="Arrow1Send"
       inkscape:isstock="true">
      <path
         transform="matrix(-0.2,0,0,-0.2,-1.2,0)"
         style="fill:#000000;fill-opacity:1;fill-rule:evenodd;stroke:#000000;stroke-width:1pt;stroke-opacity:1"
         d="M 0,0 5,-5 -12.5,0 5,5 Z"
         id="path3544" />
    </marker>
    <marker
       style="overflow:visible"
       id="marker3536"
       refX="0"
       refY="0"
       orient="auto"
       inkscape:stockid="Arrow1Sstart"
       inkscape:isstock="true">
      <path
         transform="matrix(0.2,0,0,0.2,1.2,0)"
         style="fill:#000000;fill-opacity:1;fill-rule:evenodd;stroke:#000000;stroke-width:1pt;stroke-opacity:1"
         d="M 0,0 5,-5 -12.5,0 5,5 Z"
         id="path3534" />
    </marker>
    <marker
       style="overflow:visible"
       id="marker2186"
       refX="0"
       refY="0"
       orient="auto"
       inkscape:stockid="Arrow1Mstart"
       inkscape:isstock="true">
      <path
         transform="matrix(0.4,0,0,0.4,4,0)"
         style="fill:#000000;fill-opacity:1;fill-rule:evenodd;stroke:#000000;stroke-width:1pt;stroke-opacity:1"
         d="M 0,0 5,-5 -12.5,0 5,5 Z"
         id="path2184" />
    </marker>
    <marker
       style="overflow:visible"
       id="marker2146"
       refX="0"
       refY="0"
       orient="auto"
       inkscape:stockid="Arrow1Mend"
       inkscape:isstock="true">
      <path
         transform="matrix(-0.4,0,0,-0.4,-4,0)"
         style="fill:#000000;fill-opacity:1;fill-rule:evenodd;stroke:#000000;stroke-width:1pt;stroke-opacity:1"
         d="M 0,0 5,-5 -12.5,0 5,5 Z"
         id="path2144" />
    </marker>
    <marker
       style="overflow:visible"
       id="marker2112"
       refX="0"
       refY="0"
       orient="auto"
       inkscape:stockid="Arrow1Mend"
       inkscape:isstock="true">
      <path
         transform="matrix(-0.4,0,0,-0.4,-4,0)"
         style="fill:#000000;fill-opacity:1;fill-rule:evenodd;stroke:#000000;stroke-width:1pt;stroke-opacity:1"
         d="M 0,0 5,-5 -12.5,0 5,5 Z"
         id="path2110" />
    </marker>
    <marker
       style="overflow:visible"
       id="marker5112-2"
       refX="0"
       refY="0"
       orient="auto"
       inkscape:stockid="Arrow1Send"
       inkscape:isstock="true">
      <path
         transform="matrix(-0.2,0,0,-0.2,-1.2,0)"
         style="fill:#000000;fill-opacity:1;fill-rule:evenodd;stroke:#000000;stroke-width:1pt;stroke-opacity:1"
         d="M 0,0 5,-5 -12.5,0 5,5 Z"
         id="path5110-2" />
    </marker>
    <marker
       style="overflow:visible"
       id="marker5122-6"
       refX="0"
       refY="0"
       orient="auto"
       inkscape:stockid="Arrow1Send"
       inkscape:isstock="true">
      <path
         transform="matrix(-0.2,0,0,-0.2,-1.2,0)"
         style="fill:#000000;fill-opacity:1;fill-rule:evenodd;stroke:#000000;stroke-width:1pt;stroke-opacity:1"
         d="M 0,0 5,-5 -12.5,0 5,5 Z"
         id="path5120-1" />
    </marker>
    <marker
       style="overflow:visible"
       id="marker6045-0"
       refX="0"
       refY="0"
       orient="auto"
       inkscape:stockid="Arrow1Sstart"
       inkscape:isstock="true">
      <path
         transform="matrix(0.2,0,0,0.2,1.2,0)"
         style="fill:#000000;fill-opacity:1;fill-rule:evenodd;stroke:#000000;stroke-width:1pt;stroke-opacity:1"
         d="M 0,0 5,-5 -12.5,0 5,5 Z"
         id="path6043-6" />
    </marker>
    <marker
       style="overflow:visible"
       id="marker6055-1"
       refX="0"
       refY="0"
       orient="auto"
       inkscape:stockid="Arrow1Send"
       inkscape:isstock="true">
      <path
         transform="matrix(-0.2,0,0,-0.2,-1.2,0)"
         style="fill:#000000;fill-opacity:1;fill-rule:evenodd;stroke:#000000;stroke-width:1pt;stroke-opacity:1"
         d="M 0,0 5,-5 -12.5,0 5,5 Z"
         id="path6053-5" />
    </marker>
    <marker
       style="overflow:visible"
       id="Arrow2Lend-9"
       refX="0"
       refY="0"
       orient="auto"
       inkscape:stockid="Arrow2Lend"
       inkscape:isstock="true">
      <path
         transform="matrix(-1.1,0,0,-1.1,-1.1,0)"
         d="M 8.7185878,4.0337352 -2.2072895,0.01601326 8.7185884,-4.0017078 c -1.7454984,2.3720609 -1.7354408,5.6174519 -6e-7,8.035443 z"
         style="fill:#000000;fill-opacity:1;fill-rule:evenodd;stroke:#000000;stroke-width:0.625;stroke-linejoin:round;stroke-opacity:1"
         id="path2894-4" />
    </marker>
    <marker
       style="overflow:visible"
       id="Arrow2Lend-0"
       refX="0"
       refY="0"
       orient="auto"
       inkscape:stockid="Arrow2Lend"
       inkscape:isstock="true">
      <path
         transform="matrix(-1.1,0,0,-1.1,-1.1,0)"
         d="M 8.7185878,4.0337352 -2.2072895,0.01601326 8.7185884,-4.0017078 c -1.7454984,2.3720609 -1.7354408,5.6174519 -6e-7,8.035443 z"
         style="fill:#000000;fill-opacity:1;fill-rule:evenodd;stroke:#000000;stroke-width:0.625;stroke-linejoin:round;stroke-opacity:1"
         id="path2894-9" />
    </marker>
    <marker
       style="overflow:visible"
       id="marker9518-1-9"
       refX="0"
       refY="0"
       orient="auto"
       inkscape:stockid="Arrow2Lend"
       inkscape:isstock="true">
      <path
         transform="matrix(-1.1,0,0,-1.1,-1.1,0)"
         d="M 8.7185878,4.0337352 -2.2072895,0.01601326 8.7185884,-4.0017078 c -1.7454984,2.3720609 -1.7354408,5.6174519 -6e-7,8.035443 z"
         style="fill:#0000ff;fill-opacity:1;fill-rule:evenodd;stroke:#0000ff;stroke-width:0.625;stroke-linejoin:round;stroke-opacity:1"
         id="path9516-5-0" />
    </marker>
    <marker
       style="overflow:visible"
       id="marker9518-1-9-8"
       refX="0"
       refY="0"
       orient="auto"
       inkscape:stockid="Arrow2Lend"
       inkscape:isstock="true"
       inkscape:collect="always">
      <path
         transform="matrix(-1.1,0,0,-1.1,-1.1,0)"
         d="M 8.7185878,4.0337352 -2.2072895,0.01601326 8.7185884,-4.0017078 c -1.7454984,2.3720609 -1.7354408,5.6174519 -6e-7,8.035443 z"
         style="fill:#0000ff;fill-opacity:1;fill-rule:evenodd;stroke:#0000ff;stroke-width:0.625;stroke-linejoin:round;stroke-opacity:1"
         id="path9516-5-0-5" />
    </marker>
    <marker
       style="overflow:visible"
       id="marker9518-1-9-8-9"
       refX="0"
       refY="0"
       orient="auto"
       inkscape:stockid="Arrow2Lend"
       inkscape:isstock="true"
       inkscape:collect="always">
      <path
         transform="matrix(-1.1,0,0,-1.1,-1.1,0)"
         d="M 8.7185878,4.0337352 -2.2072895,0.01601326 8.7185884,-4.0017078 c -1.7454984,2.3720609 -1.7354408,5.6174519 -6e-7,8.035443 z"
         style="fill:#0000ff;fill-opacity:1;fill-rule:evenodd;stroke:#0000ff;stroke-width:0.625;stroke-linejoin:round;stroke-opacity:1"
         id="path9516-5-0-5-6" />
    </marker>
    <marker
       style="overflow:visible"
       id="marker9518-1-9-8-8"
       refX="0"
       refY="0"
       orient="auto"
       inkscape:stockid="Arrow2Lend"
       inkscape:isstock="true"
       inkscape:collect="always">
      <path
         transform="matrix(-1.1,0,0,-1.1,-1.1,0)"
         d="M 8.7185878,4.0337352 -2.2072895,0.01601326 8.7185884,-4.0017078 c -1.7454984,2.3720609 -1.7354408,5.6174519 -6e-7,8.035443 z"
         style="fill:#0000ff;fill-opacity:1;fill-rule:evenodd;stroke:#0000ff;stroke-width:0.625;stroke-linejoin:round;stroke-opacity:1"
         id="path9516-5-0-5-4" />
    </marker>
    <marker
       style="overflow:visible"
       id="marker19229-0"
       refX="0"
       refY="0"
       orient="auto"
       inkscape:stockid="Arrow2Lend"
       inkscape:isstock="true">
      <path
         transform="matrix(-1.1,0,0,-1.1,-1.1,0)"
         d="M 8.7185878,4.0337352 -2.2072895,0.01601326 8.7185884,-4.0017078 c -1.7454984,2.3720609 -1.7354408,5.6174519 -6e-7,8.035443 z"
         style="fill:#0000ff;fill-opacity:1;fill-rule:evenodd;stroke:#0000ff;stroke-width:0.625;stroke-linejoin:round;stroke-opacity:1"
         id="path19227-3" />
    </marker>
  </defs>
  <sodipodi:namedview
     id="base"
     pagecolor="#ffffff"
     bordercolor="#666666"
     borderopacity="1.0"
     inkscape:pageopacity="0.0"
     inkscape:pageshadow="2"
     inkscape:zoom="1"
     inkscape:cx="250"
     inkscape:cy="425"
     inkscape:document-units="px"
     inkscape:current-layer="svg2"
     showgrid="true"
     showguides="false"
     inkscape:guide-bbox="true"
     inkscape:window-width="780"
     inkscape:window-height="1053"
     inkscape:window-x="3060"
     inkscape:window-y="122"
     inkscape:window-maximized="0"
     inkscape:document-rotation="0"
     inkscape:snap-text-baseline="true"
     inkscape:snap-center="false"
     inkscape:object-nodes="true"
     inkscape:snap-nodes="true"
     inkscape:snap-grids="true"
     inkscape:snap-bbox="true">
    <sodipodi:guide
       orientation="1,0"
       position="300,0"
       id="guide10" />
    <inkscape:grid
       type="xygrid"
       id="grid12"
       empspacing="5"
       visible="true"
       enabled="true"
       snapvisiblegridlinesonly="true"
       spacingx="1"
       spacingy="1" />
    <sodipodi:guide
       orientation="1,0"
       position="150,0"
       id="guide14" />
    <sodipodi:guide
       orientation="1,0"
       position="450,0"
       id="guide16" />
    <sodipodi:guide
       orientation="0,1"
       position="0,150"
       id="guide18" />
    <sodipodi:guide
       position="375,300"
       orientation="1,0"
       id="guide4051" />
    <sodipodi:guide
       position="525,220"
       orientation="1,0"
       id="guide4053" />
    <sodipodi:guide
       position="250,600"
       orientation="1,0"
       id="guide11895" />
    <sodipodi:guide
       position="75,600"
       orientation="1,0"
       id="guide12097" />
    <sodipodi:guide
       position="150,610"
       orientation="1,0"
       id="guide13562" />
  </sodipodi:namedview>
  <metadata
     id="metadata7">
    <rdf:RDF>
      <cc:Work
         rdf:about="">
        <dc:format>image/svg+xml</dc:format>
        <dc:type
           rdf:resource="http://purl.org/dc/dcmitype/StillImage" />
        <dc:title></dc:title>
      </cc:Work>
    </rdf:RDF>
  </metadata>
  <g
     inkscape:label="Layer 1"
     inkscape:groupmode="layer"
     id="layer1" />
  <text
     xml:space="preserve"
     style="font-size:24px;line-height:1.25;font-family:'DejaVu Sans';-inkscape-font-specification:'DejaVu Sans';text-align:center;letter-spacing:0px;text-anchor:middle"
     x="250"
     y="40"
     id="text344"><tspan
       sodipodi:role="line"
       id="tspan342"
       x="250"
       y="40">Positioning an Anchored Glyph</tspan></text>
  <text
     xml:space="preserve"
     style="font-size:18px;line-height:1.25;font-family:'DejaVu Sans';-inkscape-font-specification:'DejaVu Sans';text-align:center;letter-spacing:0px;word-spacing:0px;text-anchor:middle;stroke-width:0.999999"
     x="250"
     y="75"
     id="text4986"><tspan
       sodipodi:role="line"
       id="tspan4984"
       x="250"
       y="75"
       style="stroke-width:0.999999">Example: A combining tilde over an 'x': x̃,</tspan><tspan
       sodipodi:role="line"
       x="250"
       y="97.5"
       id="tspan11897"
       rotate="0 0 0 0 0 0 0 0 0 0 0 0 0 0"
       dy="0 0 0 0 0 0 0 0 0 0 0 0 0"
       dx="0 0 0 0 0 0 0 0 0 0 0 0 0"
       style="stroke-width:0.999999">in vertical-upright text.</tspan></text>
  <g
     id="g7807"
     transform="translate(30,385)">
    <g
       aria-label="x̃"
       id="text7744"
       style="font-size:40px;line-height:1.25;font-family:'DejaVu Sans';-inkscape-font-specification:'DejaVu Sans';letter-spacing:0px"
       transform="translate(-6,-6)">
      <path
         d="m 33.796875,73.242187 -1.113281,-1.074218 q -0.429688,-0.390625 -0.742188,-0.566407 -0.332031,-0.195312 -0.585937,-0.195312 -0.742188,0 -1.09375,0.722656 -0.351563,0.703125 -0.390625,2.304688 h -2.441407 q 0.03906,-2.636719 1.035157,-4.0625 0.996093,-1.445313 2.773437,-1.445313 0.742188,0 1.367188,0.273438 0.625,0.273437 1.347656,0.917968 l 1.113281,1.074219 q 0.429688,0.390625 0.761719,0.585938 0.3125,0.175781 0.566406,0.175781 0.742188,0 1.09375,-0.703125 0.351563,-0.722656 0.390625,-2.324219 h 2.441406 q -0.03906,2.636719 -1.035156,4.082031 -0.996094,1.425782 -2.773437,1.425782 -0.742188,0 -1.367188,-0.273438 -0.625,-0.273437 -1.347656,-0.917969 z"
         id="path7789" />
    </g>
    <path
       style="fill:none;stroke:#00ffff;stroke-width:0.5;stroke-linecap:butt;stroke-linejoin:miter;stroke-opacity:1"
       d="m 45,60 v 50"
       id="path7774" />
    <circle
       style="fill:#ff0000;stroke:none;stroke-width:1"
       id="circle7750"
       cx="45"
       cy="100"
       r="1" />
    <circle
       style="opacity:1;fill:#00ff00;stroke:none;stroke-width:1"
       id="circle8207"
       cx="28"
       cy="69"
       r="1.5" />
  </g>
  <g
     id="x-9"
     transform="translate(15,-30)">
    <path
       style="fill:none;stroke:#00ffff;stroke-width:0.5;stroke-linecap:butt;stroke-linejoin:miter;stroke-opacity:1"
       d="M 60,205 H 83"
       id="path2743-7"
       sodipodi:nodetypes="cc" />
    <rect
       style="fill:none;stroke:#00ffff;stroke-width:0.5"
       id="rect5016-7"
       width="23"
       height="50"
       x="60"
       y="165" />
    <text
       xml:space="preserve"
       style="font-size:40px;line-height:1.25;font-family:'DejaVu Sans';-inkscape-font-specification:'DejaVu Sans';letter-spacing:0px"
       x="60"
       y="205"
       id="text5020-6"><tspan
         sodipodi:role="line"
         id="tspan5018-7"
         x="60"
         y="205">x</tspan></text>
    <circle
       style="fill:#ff0000;stroke:none;stroke-width:1"
       id="circle5024-3"
       cx="60"
       cy="205"
       r="1.5" />
    <circle
       style="fill:#00ff00;stroke:none;stroke-width:1"
       id="circle5022-6"
       cx="72"
       cy="180"
       r="1.5" />
  </g>
  <text
     xml:space="preserve"
     style="font-size:16px;line-height:1.25;font-family:'DejaVu Sans';-inkscape-font-specification:'DejaVu Sans';letter-spacing:0px"
     x="150"
     y="255"
     id="text12111"><tspan
       sodipodi:role="line"
       x="150"
       y="255"
       id="tspan12135">Shift to align 'x' vertical origin (horizontal</tspan><tspan
       sodipodi:role="line"
       x="150"
       y="275"
       id="tspan12109">center at top of em-box) to vertical text</tspan><tspan
       sodipodi:role="line"
       x="150"
       y="295"
       id="tspan13576">alignment point.</tspan><tspan
       sodipodi:role="line"
       x="150"
       y="315"
       id="tspan13560">Offset 'x' = (−half width, −font ascent).</tspan></text>
  <g
     id="g12125"
     transform="translate(15,70)">
    <path
       style="fill:none;stroke:#00ffff;stroke-width:0.5;stroke-linecap:butt;stroke-linejoin:miter;stroke-opacity:1"
       d="M 60,205 H 83"
       id="path12113"
       sodipodi:nodetypes="cc" />
    <rect
       style="fill:none;stroke:#00ffff;stroke-width:0.5;stroke-miterlimit:4;stroke-dasharray:1, 1;stroke-dashoffset:0"
       id="rect12115"
       width="23"
       height="50"
       x="60"
       y="165" />
    <g
       aria-label="x"
       id="text12119"
       style="font-size:40px;line-height:1.25;font-family:'DejaVu Sans';-inkscape-font-specification:'DejaVu Sans';letter-spacing:0px;fill:none;stroke:#ff00ff;stroke-width:0.5">
      <path
         d="M 81.953125,183.125 74.042969,193.76953 82.363281,205 H 78.125 L 71.757812,196.40625 65.390625,205 H 61.152344 L 69.648437,193.55469 61.875,183.125 h 4.238281 l 5.800781,7.79297 5.800782,-7.79297 z"
         id="path12161"
         style="fill:none;stroke:#ff00ff;stroke-width:0.5" />
    </g>
    <circle
       style="fill:#ff0000;stroke:none;stroke-width:1"
       id="circle12121"
       cx="60"
       cy="205"
       r="1.5" />
    <circle
       style="opacity:0.5;fill:#00ff00;stroke:none;stroke-width:1"
       id="circle12123"
       cx="72"
       cy="180"
       r="1.5" />
    <circle
       style="opacity:0.5;fill:#ff0000;stroke:none;stroke-width:1"
       id="circle12155"
       cx="71.5"
       cy="165"
       r="1.5" />
  </g>
  <g
     id="g12159"
     transform="translate(3.5,110)">
    <path
       style="fill:none;stroke:#00ffff;stroke-width:0.5;stroke-linecap:butt;stroke-linejoin:miter;stroke-opacity:1"
       d="M 60,205 H 83"
       id="path12147"
       sodipodi:nodetypes="cc" />
    <rect
       style="fill:none;stroke:#00ffff;stroke-width:0.5"
       id="rect12149"
       width="23"
       height="50"
       x="60"
       y="165" />
    <text
       xml:space="preserve"
       style="font-size:40px;line-height:1.25;font-family:'DejaVu Sans';-inkscape-font-specification:'DejaVu Sans';letter-spacing:0px"
       x="60"
       y="205"
       id="text12153"><tspan
         sodipodi:role="line"
         id="tspan12151"
         x="60"
         y="205">x</tspan></text>
    <circle
       style="fill:#00ff00;stroke:none;stroke-width:1"
       id="circle12157"
       cx="72"
       cy="180"
       r="1.5" />
  </g>
  <path
     style="fill:none;stroke:#0000ff;stroke-width:0.5;stroke-linecap:butt;stroke-linejoin:miter;stroke-opacity:1;marker-end:url(#marker9518-1-9-8)"
     d="M 86.5,235 75.28445,274.11164"
     id="path9508-8"
     sodipodi:nodetypes="cc" />
  <path
     style="fill:none;stroke:#000000;stroke-width:0.5;stroke-linecap:butt;stroke-linejoin:miter;stroke-opacity:1;marker-end:url(#marker12954)"
     d="M 25,125 V 90"
     id="path12944" />
  <path
     style="fill:none;stroke:#000000;stroke-width:0.5;stroke-linecap:butt;stroke-linejoin:miter;stroke-opacity:1;marker-end:url(#marker13212)"
     d="M 25,125 H 60"
     id="path13208"
     sodipodi:nodetypes="cc" />
  <text
     xml:space="preserve"
     x="54"
     y="135"
     id="text13558"
     style="font-style:italic;font-variant:normal;font-weight:normal;font-stretch:normal;font-family:'DejaVu Serif';-inkscape-font-specification:'DejaVu Serif Italic'"><tspan
       sodipodi:role="line"
       id="tspan13556"
       x="54"
       y="135">x</tspan></text>
  <text
     xml:space="preserve"
     style="font-size:16px;line-height:1.25;font-family:'DejaVu Sans';-inkscape-font-specification:'DejaVu Sans';letter-spacing:0px"
     x="150"
     y="355"
     id="text13604"><tspan
       sodipodi:role="line"
       x="150"
       y="355"
       id="tspan13596">Move alignment point by glyph vertical</tspan><tspan
       sodipodi:role="line"
       x="150"
       y="375"
       id="tspan13602">advance (−1 em-box in <tspan
   style="font-style:italic;font-variant:normal;font-weight:normal;font-stretch:normal;font-family:'DejaVu Serif';-inkscape-font-specification:'DejaVu Serif Italic'"
   id="tspan21476">y</tspan>).</tspan></text>
  <g
     id="g13632"
     transform="translate(3.5,180)">
    <path
       style="fill:none;stroke:#00ffff;stroke-width:0.5;stroke-linecap:butt;stroke-linejoin:miter;stroke-opacity:1"
       d="M 60,205 H 83"
       id="path13622"
       sodipodi:nodetypes="cc" />
    <rect
       style="fill:none;stroke:#00ffff;stroke-width:0.5"
       id="rect13624"
       width="23"
       height="50"
       x="60"
       y="165" />
    <text
       xml:space="preserve"
       style="font-size:40px;line-height:1.25;font-family:'DejaVu Sans';-inkscape-font-specification:'DejaVu Sans';letter-spacing:0px"
       x="60"
       y="205"
       id="text13628"><tspan
         sodipodi:role="line"
         id="tspan13626"
         x="60"
         y="205">x</tspan></text>
    <circle
       style="fill:#00ff00;stroke:none;stroke-width:1"
       id="circle13630"
       cx="72"
       cy="180"
       r="1.5" />
  </g>
  <circle
     style="opacity:1;vector-effect:none;fill:#ff0000;fill-opacity:1;stroke:none;stroke-width:0.5;stroke-linecap:butt;stroke-linejoin:miter;stroke-miterlimit:4;stroke-dasharray:1, 1;stroke-dashoffset:0;stroke-opacity:1;marker-end:url(#Arrow2Lend);stop-color:#000000;stop-opacity:1"
     id="path14050"
     cx="75"
     cy="395"
     r="1.5" />
  <circle
     style="opacity:0.5;fill:#ff0000;stroke:none;stroke-width:1"
     id="circle12155-0"
     cx="75"
     cy="345"
     r="1.5" />
  <path
     style="fill:none;stroke:#0000ff;stroke-width:0.5;stroke-linecap:butt;stroke-linejoin:miter;stroke-opacity:1;marker-end:url(#marker9518-1-9-8-9)"
     d="m 75,345 v 49"
     id="path9508-8-3"
     sodipodi:nodetypes="cc" />
  <text
     xml:space="preserve"
     style="font-size:16px;line-height:1.25;font-family:'DejaVu Sans';-inkscape-font-specification:'DejaVu Sans';letter-spacing:0px"
     x="150"
     y="455"
     id="text14523"><tspan
       sodipodi:role="line"
       x="150"
       y="455"
       id="tspan14519">Add tilde with horizontal origin at vertical</tspan><tspan
       sodipodi:role="line"
       x="150"
       y="475"
       id="tspan14521">text alignment point.</tspan></text>
  <g
     id="g14535"
     transform="translate(3.5,270)">
    <path
       style="fill:none;stroke:#00ffff;stroke-width:0.5;stroke-linecap:butt;stroke-linejoin:miter;stroke-opacity:1"
       d="M 60,205 H 83"
       id="path14525"
       sodipodi:nodetypes="cc" />
    <rect
       style="font-variation-settings:normal;opacity:1;vector-effect:none;fill:none;fill-opacity:1;stroke:#00ffff;stroke-width:0.5;stroke-linecap:butt;stroke-linejoin:miter;stroke-miterlimit:4;stroke-dasharray:1, 1;stroke-dashoffset:0;stroke-opacity:1;stop-color:#000000;stop-opacity:1"
       id="rect14527"
       width="23"
       height="50"
       x="60"
       y="165" />
    <text
       xml:space="preserve"
       style="font-size:40px;line-height:1.25;font-family:'DejaVu Sans';-inkscape-font-specification:'DejaVu Sans';letter-spacing:0px"
       x="60"
       y="205"
       id="text14531"><tspan
         sodipodi:role="line"
         id="tspan14529"
         x="60"
         y="205">x</tspan></text>
    <circle
       style="fill:#00ff00;stroke:none;stroke-width:1"
       id="circle14533"
       cx="72"
       cy="180"
       r="1.5" />
  </g>
  <circle
     style="opacity:1;vector-effect:none;fill:#ff0000;fill-opacity:1;stroke:none;stroke-width:0.5;stroke-linecap:butt;stroke-linejoin:miter;stroke-miterlimit:4;stroke-dasharray:1, 1;stroke-dashoffset:0;stroke-opacity:1;marker-end:url(#Arrow2Lend);stop-color:#000000;stop-opacity:1"
     id="circle14537"
     cx="75"
     cy="485"
     r="1.5" />
  <text
     xml:space="preserve"
     style="font-size:16px;line-height:1.25;font-family:'DejaVu Sans';-inkscape-font-specification:'DejaVu Sans';letter-spacing:0px"
     x="150"
     y="555"
     id="text15002"><tspan
       sodipodi:role="line"
       x="150"
       y="555"
       id="tspan21470">Shift tilde by −'x' advance (1 em-box in <tspan
   style="font-style:italic;font-variant:normal;font-weight:normal;font-stretch:normal;font-family:'DejaVu Serif';-inkscape-font-specification:'DejaVu Serif Italic'"
   id="tspan21472">y</tspan>).</tspan></text>
  <g
     id="g15014"
     transform="translate(3.5,380)">
    <path
       style="fill:none;stroke:#00ffff;stroke-width:0.5;stroke-linecap:butt;stroke-linejoin:miter;stroke-opacity:1"
       d="M 60,205 H 83"
       id="path15004"
       sodipodi:nodetypes="cc" />
    <rect
       style="font-variation-settings:normal;opacity:1;vector-effect:none;fill:none;fill-opacity:1;stroke:#00ffff;stroke-width:0.5;stroke-linecap:butt;stroke-linejoin:miter;stroke-miterlimit:4;stroke-dasharray:1, 1;stroke-dashoffset:0;stroke-opacity:1;stop-color:#000000;stop-opacity:1"
       id="rect15006"
       width="23"
       height="50"
       x="60"
       y="165" />
    <text
       xml:space="preserve"
       style="font-size:40px;line-height:1.25;font-family:'DejaVu Sans';-inkscape-font-specification:'DejaVu Sans';letter-spacing:0px"
       x="60"
       y="205"
       id="text15010"><tspan
         sodipodi:role="line"
         id="tspan15008"
         x="60"
         y="205">x</tspan></text>
    <circle
       style="fill:#00ff00;stroke:none;stroke-width:1"
       id="circle15012"
       cx="72"
       cy="180"
       r="1.5" />
  </g>
  <g
     id="g14996"
     transform="translate(30,445)">
    <g
       aria-label="x̃"
       id="g14988"
       style="font-size:40px;line-height:1.25;font-family:'DejaVu Sans';-inkscape-font-specification:'DejaVu Sans';letter-spacing:0px"
       transform="translate(-6,-6)">
      <path
         d="m 33.796875,73.242187 -1.113281,-1.074218 q -0.429688,-0.390625 -0.742188,-0.566407 -0.332031,-0.195312 -0.585937,-0.195312 -0.742188,0 -1.09375,0.722656 -0.351563,0.703125 -0.390625,2.304688 h -2.441407 q 0.03906,-2.636719 1.035157,-4.0625 0.996093,-1.445313 2.773437,-1.445313 0.742188,0 1.367188,0.273438 0.625,0.273437 1.347656,0.917968 l 1.113281,1.074219 q 0.429688,0.390625 0.761719,0.585938 0.3125,0.175781 0.566406,0.175781 0.742188,0 1.09375,-0.703125 0.351563,-0.722656 0.390625,-2.324219 h 2.441406 q -0.03906,2.636719 -1.035156,4.082031 -0.996094,1.425782 -2.773437,1.425782 -0.742188,0 -1.367188,-0.273438 -0.625,-0.273437 -1.347656,-0.917969 z"
         id="path14986" />
    </g>
    <path
       style="fill:none;stroke:#00ffff;stroke-width:0.5;stroke-linecap:butt;stroke-linejoin:miter;stroke-opacity:1"
       d="m 45,60 v 50"
       id="path14990" />
    <circle
       style="fill:#ff0000;stroke:none;stroke-width:1"
       id="circle14992"
       cx="45"
       cy="100"
       r="1.5" />
    <circle
       style="opacity:1;fill:#00ff00;stroke:none;stroke-width:1"
       id="circle14994"
       cx="28"
       cy="69"
       r="1.5" />
  </g>
  <circle
     style="opacity:0.5;vector-effect:none;fill:#ff0000;fill-opacity:1;stroke:none;stroke-width:0.5;stroke-linecap:butt;stroke-linejoin:miter;stroke-miterlimit:4;stroke-dasharray:1, 1;stroke-dashoffset:0;stroke-opacity:1;marker-end:url(#Arrow2Lend);stop-color:#000000;stop-opacity:1"
     id="circle15016"
     cx="75"
     cy="595"
     r="1.5" />
  <path
     style="fill:none;stroke:#0000ff;stroke-width:0.5;stroke-linecap:butt;stroke-linejoin:miter;stroke-opacity:1;marker-end:url(#marker15404)"
     d="M 75,595 V 546"
     id="path15026"
     sodipodi:nodetypes="cc" />
  <g
     id="g15528"
     transform="translate(30,545)">
    <g
       aria-label="x̃"
       id="g15520"
       style="font-size:40px;line-height:1.25;font-family:'DejaVu Sans';-inkscape-font-specification:'DejaVu Sans';letter-spacing:0px;fill:none;stroke:#ff00ff;stroke-width:0.5"
       transform="translate(-6,-6)">
      <path
         d="m 33.796875,73.242187 -1.113281,-1.074218 q -0.429688,-0.390625 -0.742188,-0.566407 -0.332031,-0.195312 -0.585937,-0.195312 -0.742188,0 -1.09375,0.722656 -0.351563,0.703125 -0.390625,2.304688 h -2.441407 q 0.03906,-2.636719 1.035157,-4.0625 0.996093,-1.445313 2.773437,-1.445313 0.742188,0 1.367188,0.273438 0.625,0.273437 1.347656,0.917968 l 1.113281,1.074219 q 0.429688,0.390625 0.761719,0.585938 0.3125,0.175781 0.566406,0.175781 0.742188,0 1.09375,-0.703125 0.351563,-0.722656 0.390625,-2.324219 h 2.441406 q -0.03906,2.636719 -1.035156,4.082031 -0.996094,1.425782 -2.773437,1.425782 -0.742188,0 -1.367188,-0.273438 -0.625,-0.273437 -1.347656,-0.917969 z"
         id="path15518"
         style="fill:none;stroke:#ff00ff;stroke-width:0.5" />
    </g>
    <path
       style="font-variation-settings:normal;opacity:1;vector-effect:none;fill:none;fill-opacity:1;stroke:#00ffff;stroke-width:0.5;stroke-linecap:butt;stroke-linejoin:miter;stroke-miterlimit:4;stroke-dasharray:1, 1;stroke-dashoffset:0;stroke-opacity:1;stop-color:#000000;stop-opacity:1"
       d="m 45,60 v 50"
       id="path15522" />
    <circle
       style="opacity:0.5;fill:#ff0000;stroke:none;stroke-width:1"
       id="circle15524"
       cx="45"
       cy="100"
       r="1.5" />
    <circle
       style="opacity:0.5;fill:#00ff00;stroke:none;stroke-width:1"
       id="circle15526"
       cx="28"
       cy="69"
       r="1.5" />
  </g>
  <text
     xml:space="preserve"
     style="font-size:16px;line-height:1.25;font-family:'DejaVu Sans';-inkscape-font-specification:'DejaVu Sans';letter-spacing:0px"
     x="150"
     y="655"
     id="text15532"><tspan
       sodipodi:role="line"
       x="150"
       y="655"
       id="tspan15530">Shift tilde by 'x' advance offset. Note:</tspan><tspan
       sodipodi:role="line"
       x="150"
       y="675"
       id="tspan18725">'x' and tilde horizontal alignment points</tspan><tspan
       sodipodi:role="line"
       x="150"
       y="695"
       id="tspan18727">are now aligned.</tspan></text>
  <g
     id="g15544"
     transform="translate(3.5,480)">
    <path
       style="fill:none;stroke:#00ffff;stroke-width:0.5;stroke-linecap:butt;stroke-linejoin:miter;stroke-opacity:1"
       d="M 60,205 H 83"
       id="path15534"
       sodipodi:nodetypes="cc" />
    <rect
       style="font-variation-settings:normal;opacity:1;vector-effect:none;fill:none;fill-opacity:1;stroke:#00ffff;stroke-width:0.5;stroke-linecap:butt;stroke-linejoin:miter;stroke-miterlimit:4;stroke-dasharray:1, 1;stroke-dashoffset:0;stroke-opacity:1;stop-color:#000000;stop-opacity:1"
       id="rect15536"
       width="23"
       height="50"
       x="60"
       y="165" />
    <text
       xml:space="preserve"
       style="font-size:40px;line-height:1.25;font-family:'DejaVu Sans';-inkscape-font-specification:'DejaVu Sans';letter-spacing:0px"
       x="60"
       y="205"
       id="text15540"><tspan
         sodipodi:role="line"
         id="tspan15538"
         x="60"
         y="205">x</tspan></text>
    <circle
       style="fill:#00ff00;stroke:none;stroke-width:1"
       id="circle15542"
       cx="72"
       cy="180"
       r="1.5" />
  </g>
  <path
     style="fill:none;stroke:#0000ff;stroke-width:0.5;stroke-linecap:butt;stroke-linejoin:miter;stroke-opacity:1;marker-end:url(#marker9518-1-9-8-8)"
     d="M 75,645 63.78445,684.11164"
     id="path9508-8-8"
     sodipodi:nodetypes="cc" />
  <g
     id="g19194"
     transform="translate(18.5,585)">
    <g
       aria-label="x̃"
       id="g19186"
       style="font-size:40px;line-height:1.25;font-family:'DejaVu Sans';-inkscape-font-specification:'DejaVu Sans';letter-spacing:0px"
       transform="translate(-6,-6)">
      <path
         d="m 33.796875,73.242187 -1.113281,-1.074218 q -0.429688,-0.390625 -0.742188,-0.566407 -0.332031,-0.195312 -0.585937,-0.195312 -0.742188,0 -1.09375,0.722656 -0.351563,0.703125 -0.390625,2.304688 h -2.441407 q 0.03906,-2.636719 1.035157,-4.0625 0.996093,-1.445313 2.773437,-1.445313 0.742188,0 1.367188,0.273438 0.625,0.273437 1.347656,0.917968 l 1.113281,1.074219 q 0.429688,0.390625 0.761719,0.585938 0.3125,0.175781 0.566406,0.175781 0.742188,0 1.09375,-0.703125 0.351563,-0.722656 0.390625,-2.324219 h 2.441406 q -0.03906,2.636719 -1.035156,4.082031 -0.996094,1.425782 -2.773437,1.425782 -0.742188,0 -1.367188,-0.273438 -0.625,-0.273437 -1.347656,-0.917969 z"
         id="path19184" />
    </g>
    <path
       style="fill:none;stroke:#00ffff;stroke-width:0.5;stroke-linecap:butt;stroke-linejoin:miter;stroke-opacity:1"
       d="m 45,60 v 50"
       id="path19188" />
    <circle
       style="fill:#ff0000;stroke:none;stroke-width:1"
       id="circle19190"
       cx="45"
       cy="100"
       r="1.5" />
    <circle
       style="opacity:1;fill:#00ff00;stroke:none;stroke-width:1"
       id="circle19192"
       cx="28"
       cy="69"
       r="1.5" />
  </g>
  <text
     xml:space="preserve"
     style="font-size:16px;line-height:1.25;font-family:'DejaVu Sans';-inkscape-font-specification:'DejaVu Sans';letter-spacing:0px"
     x="150"
     y="755"
     id="text19637"><tspan
       sodipodi:role="line"
       x="150"
       y="755"
       id="tspan19635">Shift tilde by d<tspan
   style="font-size:65%;baseline-shift:sub"
   id="tspan20702">anchor</tspan>. Anchor points of 'x'</tspan><tspan
       sodipodi:role="line"
       x="150"
       y="775"
       id="tspan20704">and tilde are now aligned.</tspan><tspan
       sodipodi:role="line"
       x="150"
       y="795"
       id="tspan21504">Total tilde offset =</tspan><tspan
       sodipodi:role="line"
       x="150"
       y="815"
       id="tspan21515">     −'x' advance + 'x' offset + d<tspan
   style="font-size:65%;baseline-shift:sub"
   id="tspan21502">anchor</tspan></tspan></text>
  <g
     id="g19649"
     transform="translate(3.5,580)">
    <path
       style="fill:none;stroke:#00ffff;stroke-width:0.5;stroke-linecap:butt;stroke-linejoin:miter;stroke-opacity:1"
       d="M 60,205 H 83"
       id="path19639"
       sodipodi:nodetypes="cc" />
    <rect
       style="font-variation-settings:normal;opacity:1;vector-effect:none;fill:none;fill-opacity:1;stroke:#00ffff;stroke-width:0.5;stroke-linecap:butt;stroke-linejoin:miter;stroke-miterlimit:4;stroke-dasharray:1, 1;stroke-dashoffset:0;stroke-opacity:1;stop-color:#000000;stop-opacity:1"
       id="rect19641"
       width="23"
       height="50"
       x="60"
       y="165" />
    <text
       xml:space="preserve"
       style="font-size:40px;line-height:1.25;font-family:'DejaVu Sans';-inkscape-font-specification:'DejaVu Sans';letter-spacing:0px"
       x="60"
       y="205"
       id="text19645"><tspan
         sodipodi:role="line"
         id="tspan19643"
         x="60"
         y="205">x</tspan></text>
    <circle
       style="fill:#00ff00;stroke:none;stroke-width:1"
       id="circle19647"
       cx="72"
       cy="180"
       r="1.5" />
  </g>
  <g
     id="g19665"
     transform="translate(18.5,685)">
    <g
       aria-label="x̃"
       id="g19657"
       style="font-size:40px;line-height:1.25;font-family:'DejaVu Sans';-inkscape-font-specification:'DejaVu Sans';letter-spacing:0px;fill:none;stroke:#ff00ff;stroke-width:0.5"
       transform="translate(-6,-6)">
      <path
         d="m 33.796875,73.242187 -1.113281,-1.074218 q -0.429688,-0.390625 -0.742188,-0.566407 -0.332031,-0.195312 -0.585937,-0.195312 -0.742188,0 -1.09375,0.722656 -0.351563,0.703125 -0.390625,2.304688 h -2.441407 q 0.03906,-2.636719 1.035157,-4.0625 0.996093,-1.445313 2.773437,-1.445313 0.742188,0 1.367188,0.273438 0.625,0.273437 1.347656,0.917968 l 1.113281,1.074219 q 0.429688,0.390625 0.761719,0.585938 0.3125,0.175781 0.566406,0.175781 0.742188,0 1.09375,-0.703125 0.351563,-0.722656 0.390625,-2.324219 h 2.441406 q -0.03906,2.636719 -1.035156,4.082031 -0.996094,1.425782 -2.773437,1.425782 -0.742188,0 -1.367188,-0.273438 -0.625,-0.273437 -1.347656,-0.917969 z"
         id="path19655"
         style="fill:none;stroke:#ff00ff;stroke-width:0.5" />
    </g>
    <circle
       style="opacity:0.5;fill:#ff0000;stroke:none;stroke-width:1"
       id="circle19661"
       cx="45"
       cy="100"
       r="1.5" />
    <circle
       style="opacity:0.5;fill:#00ff00;stroke:none;stroke-width:1"
       id="circle19663"
       cx="28"
       cy="69"
       r="1.5" />
  </g>
  <g
     id="g21155"
     transform="translate(47.5,691)">
    <g
       aria-label="x̃"
       id="g21147"
       style="font-size:40px;line-height:1.25;font-family:'DejaVu Sans';-inkscape-font-specification:'DejaVu Sans';letter-spacing:0px"
       transform="translate(-6,-6)">
      <path
         d="m 33.796875,73.242187 -1.113281,-1.074218 q -0.429688,-0.390625 -0.742188,-0.566407 -0.332031,-0.195312 -0.585937,-0.195312 -0.742188,0 -1.09375,0.722656 -0.351563,0.703125 -0.390625,2.304688 h -2.441407 q 0.03906,-2.636719 1.035157,-4.0625 0.996093,-1.445313 2.773437,-1.445313 0.742188,0 1.367188,0.273438 0.625,0.273437 1.347656,0.917968 l 1.113281,1.074219 q 0.429688,0.390625 0.761719,0.585938 0.3125,0.175781 0.566406,0.175781 0.742188,0 1.09375,-0.703125 0.351563,-0.722656 0.390625,-2.324219 h 2.441406 q -0.03906,2.636719 -1.035156,4.082031 -0.996094,1.425782 -2.773437,1.425782 -0.742188,0 -1.367188,-0.273438 -0.625,-0.273437 -1.347656,-0.917969 z"
         id="path21145" />
    </g>
    <path
       style="fill:none;stroke:#00ffff;stroke-width:0.5;stroke-linecap:butt;stroke-linejoin:miter;stroke-opacity:1"
       d="m 45,60 v 50"
       id="path21149" />
    <circle
       style="fill:#ff0000;stroke:none;stroke-width:1"
       id="circle21151"
       cx="45"
       cy="100"
       r="1.5" />
    <circle
       style="opacity:1;fill:#00ff00;stroke:none;stroke-width:1"
       id="circle21153"
       cx="28"
       cy="69"
       r="1.5" />
  </g>
  <path
     style="fill:none;stroke:#0000ff;stroke-width:0.5;stroke-linecap:butt;stroke-linejoin:miter;stroke-opacity:1;marker-end:url(#marker19229-0)"
     d="m 46.5,754 28.14112,5.8562"
     id="path19225"
     sodipodi:nodetypes="cc" />
  <text
     xml:space="preserve"
     x="15"
     y="95"
     id="text21492"
     style="font-style:italic;font-variant:normal;font-weight:normal;font-stretch:normal;font-family:'DejaVu Serif';-inkscape-font-specification:'DejaVu Serif Italic'"><tspan
       sodipodi:role="line"
       id="tspan21490"
       x="15"
       y="95">y</tspan></text>
</svg>
