<?xml version="1.0" encoding="UTF-8" standalone="no"?>
<svg
   xmlns:dc="http://purl.org/dc/elements/1.1/"
   xmlns:cc="http://creativecommons.org/ns#"
   xmlns:rdf="http://www.w3.org/1999/02/22-rdf-syntax-ns#"
   xmlns:svg="http://www.w3.org/2000/svg"
   xmlns="http://www.w3.org/2000/svg"
   xmlns:sodipodi="http://sodipodi.sourceforge.net/DTD/sodipodi-0.dtd"
   xmlns:inkscape="http://www.inkscape.org/namespaces/inkscape"
   width="500"
   height="350"
   id="svg2"
   version="1.1"
   inkscape:version="1.0.2 (e86c870879, 2021-01-15)"
   sodipodi:docname="glyph_shaping_04.svg"
   viewBox="0 0 500 350">
  <defs
     id="defs4">
    <marker
       style="overflow:visible"
       id="marker9518"
       refX="0"
       refY="0"
       orient="auto"
       inkscape:stockid="Arrow2Lend"
       inkscape:isstock="true">
      <path
         transform="matrix(-1.1,0,0,-1.1,-1.1,0)"
         d="M 8.7185878,4.0337352 -2.2072895,0.01601326 8.7185884,-4.0017078 c -1.7454984,2.3720609 -1.7354408,5.6174519 -6e-7,8.035443 z"
         style="fill:#00ff00;fill-opacity:1;fill-rule:evenodd;stroke:#00ff00;stroke-width:0.625;stroke-linejoin:round;stroke-opacity:1"
         id="path9516" />
    </marker>
    <marker
       style="overflow:visible"
       id="marker8465"
       refX="0"
       refY="0"
       orient="auto"
       inkscape:stockid="Arrow2Lend"
       inkscape:isstock="true">
      <path
         transform="matrix(-1.1,0,0,-1.1,-1.1,0)"
         d="M 8.7185878,4.0337352 -2.2072895,0.01601326 8.7185884,-4.0017078 c -1.7454984,2.3720609 -1.7354408,5.6174519 -6e-7,8.035443 z"
         style="fill:#000000;fill-opacity:1;fill-rule:evenodd;stroke:#000000;stroke-width:0.625;stroke-linejoin:round;stroke-opacity:1"
         id="path8463" />
    </marker>
    <marker
       style="overflow:visible"
       id="marker8455"
       refX="0"
       refY="0"
       orient="auto"
       inkscape:stockid="Arrow2Lend"
       inkscape:isstock="true">
      <path
         transform="matrix(-1.1,0,0,-1.1,-1.1,0)"
         d="M 8.7185878,4.0337352 -2.2072895,0.01601326 8.7185884,-4.0017078 c -1.7454984,2.3720609 -1.7354408,5.6174519 -6e-7,8.035443 z"
         style="fill:#000000;fill-opacity:1;fill-rule:evenodd;stroke:#000000;stroke-width:0.625;stroke-linejoin:round;stroke-opacity:1"
         id="path8453" />
    </marker>
    <marker
       style="overflow:visible"
       id="marker7891"
       refX="0"
       refY="0"
       orient="auto"
       inkscape:stockid="Arrow2Lend"
       inkscape:isstock="true">
      <path
         transform="matrix(-1.1,0,0,-1.1,-1.1,0)"
         d="M 8.7185878,4.0337352 -2.2072895,0.01601326 8.7185884,-4.0017078 c -1.7454984,2.3720609 -1.7354408,5.6174519 -6e-7,8.035443 z"
         style="fill:#000000;fill-opacity:1;fill-rule:evenodd;stroke:#000000;stroke-width:0.625;stroke-linejoin:round;stroke-opacity:1"
         id="path7889" />
    </marker>
    <marker
       style="overflow:visible"
       id="marker7881"
       refX="0"
       refY="0"
       orient="auto"
       inkscape:stockid="Arrow2Lend"
       inkscape:isstock="true">
      <path
         transform="matrix(-1.1,0,0,-1.1,-1.1,0)"
         d="M 8.7185878,4.0337352 -2.2072895,0.01601326 8.7185884,-4.0017078 c -1.7454984,2.3720609 -1.7354408,5.6174519 -6e-7,8.035443 z"
         style="fill:#000000;fill-opacity:1;fill-rule:evenodd;stroke:#000000;stroke-width:0.625;stroke-linejoin:round;stroke-opacity:1"
         id="path7879" />
    </marker>
    <marker
       style="overflow:visible"
       id="marker7871"
       refX="0"
       refY="0"
       orient="auto"
       inkscape:stockid="Arrow2Lend"
       inkscape:isstock="true">
      <path
         transform="matrix(-1.1,0,0,-1.1,-1.1,0)"
         d="M 8.7185878,4.0337352 -2.2072895,0.01601326 8.7185884,-4.0017078 c -1.7454984,2.3720609 -1.7354408,5.6174519 -6e-7,8.035443 z"
         style="fill:#000000;fill-opacity:1;fill-rule:evenodd;stroke:#000000;stroke-width:0.625;stroke-linejoin:round;stroke-opacity:1"
         id="path7869" />
    </marker>
    <marker
       style="overflow:visible"
       id="marker6055"
       refX="0"
       refY="0"
       orient="auto"
       inkscape:stockid="Arrow1Send"
       inkscape:isstock="true">
      <path
         transform="matrix(-0.2,0,0,-0.2,-1.2,0)"
         style="fill:#000000;fill-opacity:1;fill-rule:evenodd;stroke:#000000;stroke-width:1pt;stroke-opacity:1"
         d="M 0,0 5,-5 -12.5,0 5,5 Z"
         id="path6053" />
    </marker>
    <marker
       style="overflow:visible"
       id="marker6045"
       refX="0"
       refY="0"
       orient="auto"
       inkscape:stockid="Arrow1Sstart"
       inkscape:isstock="true">
      <path
         transform="matrix(0.2,0,0,0.2,1.2,0)"
         style="fill:#000000;fill-opacity:1;fill-rule:evenodd;stroke:#000000;stroke-width:1pt;stroke-opacity:1"
         d="M 0,0 5,-5 -12.5,0 5,5 Z"
         id="path6043" />
    </marker>
    <marker
       style="overflow:visible"
       id="marker5618"
       refX="0"
       refY="0"
       orient="auto"
       inkscape:stockid="Arrow1Send"
       inkscape:isstock="true">
      <path
         transform="matrix(-0.2,0,0,-0.2,-1.2,0)"
         style="fill:#000000;fill-opacity:1;fill-rule:evenodd;stroke:#000000;stroke-width:1pt;stroke-opacity:1"
         d="M 0,0 5,-5 -12.5,0 5,5 Z"
         id="path5616" />
    </marker>
    <marker
       style="overflow:visible"
       id="marker5608"
       refX="0"
       refY="0"
       orient="auto"
       inkscape:stockid="Arrow1Sstart"
       inkscape:isstock="true">
      <path
         transform="matrix(0.2,0,0,0.2,1.2,0)"
         style="fill:#000000;fill-opacity:1;fill-rule:evenodd;stroke:#000000;stroke-width:1pt;stroke-opacity:1"
         d="M 0,0 5,-5 -12.5,0 5,5 Z"
         id="path5606" />
    </marker>
    <marker
       style="overflow:visible"
       id="marker5122"
       refX="0"
       refY="0"
       orient="auto"
       inkscape:stockid="Arrow1Send"
       inkscape:isstock="true">
      <path
         transform="matrix(-0.2,0,0,-0.2,-1.2,0)"
         style="fill:#000000;fill-opacity:1;fill-rule:evenodd;stroke:#000000;stroke-width:1pt;stroke-opacity:1"
         d="M 0,0 5,-5 -12.5,0 5,5 Z"
         id="path5120" />
    </marker>
    <marker
       style="overflow:visible"
       id="marker5112"
       refX="0"
       refY="0"
       orient="auto"
       inkscape:stockid="Arrow1Send"
       inkscape:isstock="true">
      <path
         transform="matrix(-0.2,0,0,-0.2,-1.2,0)"
         style="fill:#000000;fill-opacity:1;fill-rule:evenodd;stroke:#000000;stroke-width:1pt;stroke-opacity:1"
         d="M 0,0 5,-5 -12.5,0 5,5 Z"
         id="path5110" />
    </marker>
    <marker
       style="overflow:visible"
       id="marker4303"
       refX="0"
       refY="0"
       orient="auto"
       inkscape:stockid="Arrow1Send"
       inkscape:isstock="true">
      <path
         transform="matrix(-0.2,0,0,-0.2,-1.2,0)"
         style="fill:#000000;fill-opacity:1;fill-rule:evenodd;stroke:#000000;stroke-width:1pt;stroke-opacity:1"
         d="M 0,0 5,-5 -12.5,0 5,5 Z"
         id="path4301" />
    </marker>
    <marker
       style="overflow:visible"
       id="marker4293"
       refX="0"
       refY="0"
       orient="auto"
       inkscape:stockid="Arrow1Sstart"
       inkscape:isstock="true">
      <path
         transform="matrix(0.2,0,0,0.2,1.2,0)"
         style="fill:#000000;fill-opacity:1;fill-rule:evenodd;stroke:#000000;stroke-width:1pt;stroke-opacity:1"
         d="M 0,0 5,-5 -12.5,0 5,5 Z"
         id="path4291" />
    </marker>
    <marker
       style="overflow:visible"
       id="marker3566"
       refX="0"
       refY="0"
       orient="auto"
       inkscape:stockid="Arrow1Send"
       inkscape:isstock="true">
      <path
         transform="matrix(-0.2,0,0,-0.2,-1.2,0)"
         style="fill:#000000;fill-opacity:1;fill-rule:evenodd;stroke:#000000;stroke-width:1pt;stroke-opacity:1"
         d="M 0,0 5,-5 -12.5,0 5,5 Z"
         id="path3564" />
    </marker>
    <marker
       style="overflow:visible"
       id="marker3556"
       refX="0"
       refY="0"
       orient="auto"
       inkscape:stockid="Arrow1Send"
       inkscape:isstock="true">
      <path
         transform="matrix(-0.2,0,0,-0.2,-1.2,0)"
         style="fill:#000000;fill-opacity:1;fill-rule:evenodd;stroke:#000000;stroke-width:1pt;stroke-opacity:1"
         d="M 0,0 5,-5 -12.5,0 5,5 Z"
         id="path3554" />
    </marker>
    <marker
       style="overflow:visible"
       id="marker3546"
       refX="0"
       refY="0"
       orient="auto"
       inkscape:stockid="Arrow1Send"
       inkscape:isstock="true">
      <path
         transform="matrix(-0.2,0,0,-0.2,-1.2,0)"
         style="fill:#000000;fill-opacity:1;fill-rule:evenodd;stroke:#000000;stroke-width:1pt;stroke-opacity:1"
         d="M 0,0 5,-5 -12.5,0 5,5 Z"
         id="path3544" />
    </marker>
    <marker
       style="overflow:visible"
       id="marker3536"
       refX="0"
       refY="0"
       orient="auto"
       inkscape:stockid="Arrow1Sstart"
       inkscape:isstock="true">
      <path
         transform="matrix(0.2,0,0,0.2,1.2,0)"
         style="fill:#000000;fill-opacity:1;fill-rule:evenodd;stroke:#000000;stroke-width:1pt;stroke-opacity:1"
         d="M 0,0 5,-5 -12.5,0 5,5 Z"
         id="path3534" />
    </marker>
    <marker
       style="overflow:visible"
       id="marker2186"
       refX="0"
       refY="0"
       orient="auto"
       inkscape:stockid="Arrow1Mstart"
       inkscape:isstock="true">
      <path
         transform="matrix(0.4,0,0,0.4,4,0)"
         style="fill:#000000;fill-opacity:1;fill-rule:evenodd;stroke:#000000;stroke-width:1pt;stroke-opacity:1"
         d="M 0,0 5,-5 -12.5,0 5,5 Z"
         id="path2184" />
    </marker>
    <marker
       style="overflow:visible"
       id="marker2146"
       refX="0"
       refY="0"
       orient="auto"
       inkscape:stockid="Arrow1Mend"
       inkscape:isstock="true">
      <path
         transform="matrix(-0.4,0,0,-0.4,-4,0)"
         style="fill:#000000;fill-opacity:1;fill-rule:evenodd;stroke:#000000;stroke-width:1pt;stroke-opacity:1"
         d="M 0,0 5,-5 -12.5,0 5,5 Z"
         id="path2144" />
    </marker>
    <marker
       style="overflow:visible"
       id="marker2112"
       refX="0"
       refY="0"
       orient="auto"
       inkscape:stockid="Arrow1Mend"
       inkscape:isstock="true">
      <path
         transform="matrix(-0.4,0,0,-0.4,-4,0)"
         style="fill:#000000;fill-opacity:1;fill-rule:evenodd;stroke:#000000;stroke-width:1pt;stroke-opacity:1"
         d="M 0,0 5,-5 -12.5,0 5,5 Z"
         id="path2110" />
    </marker>
    <marker
       style="overflow:visible"
       id="marker5112-2"
       refX="0"
       refY="0"
       orient="auto"
       inkscape:stockid="Arrow1Send"
       inkscape:isstock="true">
      <path
         transform="matrix(-0.2,0,0,-0.2,-1.2,0)"
         style="fill:#000000;fill-opacity:1;fill-rule:evenodd;stroke:#000000;stroke-width:1pt;stroke-opacity:1"
         d="M 0,0 5,-5 -12.5,0 5,5 Z"
         id="path5110-2" />
    </marker>
    <marker
       style="overflow:visible"
       id="marker5122-6"
       refX="0"
       refY="0"
       orient="auto"
       inkscape:stockid="Arrow1Send"
       inkscape:isstock="true">
      <path
         transform="matrix(-0.2,0,0,-0.2,-1.2,0)"
         style="fill:#000000;fill-opacity:1;fill-rule:evenodd;stroke:#000000;stroke-width:1pt;stroke-opacity:1"
         d="M 0,0 5,-5 -12.5,0 5,5 Z"
         id="path5120-1" />
    </marker>
    <marker
       style="overflow:visible"
       id="marker6045-0"
       refX="0"
       refY="0"
       orient="auto"
       inkscape:stockid="Arrow1Sstart"
       inkscape:isstock="true">
      <path
         transform="matrix(0.2,0,0,0.2,1.2,0)"
         style="fill:#000000;fill-opacity:1;fill-rule:evenodd;stroke:#000000;stroke-width:1pt;stroke-opacity:1"
         d="M 0,0 5,-5 -12.5,0 5,5 Z"
         id="path6043-6" />
    </marker>
    <marker
       style="overflow:visible"
       id="marker6055-1"
       refX="0"
       refY="0"
       orient="auto"
       inkscape:stockid="Arrow1Send"
       inkscape:isstock="true">
      <path
         transform="matrix(-0.2,0,0,-0.2,-1.2,0)"
         style="fill:#000000;fill-opacity:1;fill-rule:evenodd;stroke:#000000;stroke-width:1pt;stroke-opacity:1"
         d="M 0,0 5,-5 -12.5,0 5,5 Z"
         id="path6053-5" />
    </marker>
    <marker
       style="overflow:visible"
       id="Arrow2Lend-9"
       refX="0"
       refY="0"
       orient="auto"
       inkscape:stockid="Arrow2Lend"
       inkscape:isstock="true">
      <path
         transform="matrix(-1.1,0,0,-1.1,-1.1,0)"
         d="M 8.7185878,4.0337352 -2.2072895,0.01601326 8.7185884,-4.0017078 c -1.7454984,2.3720609 -1.7354408,5.6174519 -6e-7,8.035443 z"
         style="fill:#000000;fill-opacity:1;fill-rule:evenodd;stroke:#000000;stroke-width:0.625;stroke-linejoin:round;stroke-opacity:1"
         id="path2894-4" />
    </marker>
    <marker
       style="overflow:visible"
       id="Arrow2Lend-0"
       refX="0"
       refY="0"
       orient="auto"
       inkscape:stockid="Arrow2Lend"
       inkscape:isstock="true">
      <path
         transform="matrix(-1.1,0,0,-1.1,-1.1,0)"
         d="M 8.7185878,4.0337352 -2.2072895,0.01601326 8.7185884,-4.0017078 c -1.7454984,2.3720609 -1.7354408,5.6174519 -6e-7,8.035443 z"
         style="fill:#000000;fill-opacity:1;fill-rule:evenodd;stroke:#000000;stroke-width:0.625;stroke-linejoin:round;stroke-opacity:1"
         id="path2894-9" />
    </marker>
    <marker
       style="overflow:visible"
       id="marker9518-1"
       refX="0"
       refY="0"
       orient="auto"
       inkscape:stockid="Arrow2Lend"
       inkscape:isstock="true">
      <path
         transform="matrix(-1.1,0,0,-1.1,-1.1,0)"
         d="M 8.7185878,4.0337352 -2.2072895,0.01601326 8.7185884,-4.0017078 c -1.7454984,2.3720609 -1.7354408,5.6174519 -6e-7,8.035443 z"
         style="fill:#0000ff;fill-opacity:1;fill-rule:evenodd;stroke:#0000ff;stroke-width:0.625;stroke-linejoin:round;stroke-opacity:1"
         id="path9516-5" />
    </marker>
  </defs>
  <sodipodi:namedview
     id="base"
     pagecolor="#ffffff"
     bordercolor="#666666"
     borderopacity="1.0"
     inkscape:pageopacity="0.0"
     inkscape:pageshadow="2"
     inkscape:zoom="2.078"
     inkscape:cx="250"
     inkscape:cy="175"
     inkscape:document-units="px"
     inkscape:current-layer="svg2"
     showgrid="true"
     showguides="true"
     inkscape:guide-bbox="true"
     inkscape:window-width="1623"
     inkscape:window-height="1047"
     inkscape:window-x="28"
     inkscape:window-y="148"
     inkscape:window-maximized="0"
     inkscape:document-rotation="0"
     inkscape:snap-text-baseline="true"
     inkscape:snap-center="true"
     inkscape:object-nodes="true"
     inkscape:snap-nodes="true">
    <sodipodi:guide
       orientation="1,0"
       position="300,0"
       id="guide10" />
    <inkscape:grid
       type="xygrid"
       id="grid12"
       empspacing="5"
       visible="true"
       enabled="true"
       snapvisiblegridlinesonly="true"
       spacingx="1"
       spacingy="1" />
    <sodipodi:guide
       orientation="1,0"
       position="150,0"
       id="guide14" />
    <sodipodi:guide
       orientation="1,0"
       position="450,0"
       id="guide16" />
    <sodipodi:guide
       orientation="0,1"
       position="0,150"
       id="guide18" />
    <sodipodi:guide
       position="375,300"
       orientation="1,0"
       id="guide4051" />
    <sodipodi:guide
       position="525,220"
       orientation="1,0"
       id="guide4053" />
    <sodipodi:guide
       position="300,600"
       orientation="1,0"
       id="guide11873" />
    <sodipodi:guide
       position="250,450"
       orientation="1,0"
       id="guide11887" />
  </sodipodi:namedview>
  <metadata
     id="metadata7">
    <rdf:RDF>
      <cc:Work
         rdf:about="">
        <dc:format>image/svg+xml</dc:format>
        <dc:type
           rdf:resource="http://purl.org/dc/dcmitype/StillImage" />
        <dc:title></dc:title>
      </cc:Work>
    </rdf:RDF>
  </metadata>
  <g
     inkscape:label="Layer 1"
     inkscape:groupmode="layer"
     id="layer1" />
  <text
     xml:space="preserve"
     style="font-size:24px;line-height:1.25;font-family:'DejaVu Sans';-inkscape-font-specification:'DejaVu Sans';text-align:center;letter-spacing:0px;text-anchor:middle"
     x="249.10938"
     y="40"
     id="text344"><tspan
       sodipodi:role="line"
       id="tspan342"
       x="249.10938"
       y="40">Determining the Anchor Offset</tspan></text>
  <text
     xml:space="preserve"
     style="font-size:18px;line-height:1.25;font-family:'DejaVu Sans';-inkscape-font-specification:'DejaVu Sans';text-align:center;letter-spacing:0px;text-anchor:middle"
     x="250"
     y="75.119629"
     id="text4986"><tspan
       sodipodi:role="line"
       id="tspan4984"
       x="250"
       y="75.119629">Example: A combining tilde over an 'x': x̃.</tspan></text>
  <g
     id="x"
     transform="translate(-15,-50)">
    <path
       style="fill:none;stroke:#00ffff;stroke-width:0.5;stroke-linecap:butt;stroke-linejoin:miter;stroke-opacity:1"
       d="M 60,205 H 83"
       id="path2743"
       sodipodi:nodetypes="cc" />
    <rect
       style="fill:none;stroke:#00ffff;stroke-width:0.5"
       id="rect5016"
       width="23"
       height="50"
       x="60"
       y="165" />
    <text
       xml:space="preserve"
       style="font-size:40px;line-height:1.25;font-family:'DejaVu Sans';-inkscape-font-specification:'DejaVu Sans';letter-spacing:0px"
       x="60"
       y="205"
       id="text5020"><tspan
         sodipodi:role="line"
         id="tspan5018"
         x="60"
         y="205">x</tspan></text>
    <circle
       style="fill:#ff0000;stroke:none;stroke-width:1"
       id="circle5024"
       cx="60"
       cy="205"
       r="1.5" />
    <circle
       style="fill:#00ff00;stroke:none;stroke-width:1"
       id="circle5022"
       cx="72"
       cy="180"
       r="1" />
  </g>
  <g
     id="g7807"
     transform="translate(100,55)">
    <g
       aria-label="x̃"
       id="text7744"
       style="font-size:40px;line-height:1.25;font-family:'DejaVu Sans';-inkscape-font-specification:'DejaVu Sans';letter-spacing:0px"
       transform="translate(-6,-6)">
      <path
         d="m 33.796875,73.242187 -1.113281,-1.074218 q -0.429688,-0.390625 -0.742188,-0.566407 -0.332031,-0.195312 -0.585937,-0.195312 -0.742188,0 -1.09375,0.722656 -0.351563,0.703125 -0.390625,2.304688 h -2.441407 q 0.03906,-2.636719 1.035157,-4.0625 0.996093,-1.445313 2.773437,-1.445313 0.742188,0 1.367188,0.273438 0.625,0.273437 1.347656,0.917968 l 1.113281,1.074219 q 0.429688,0.390625 0.761719,0.585938 0.3125,0.175781 0.566406,0.175781 0.742188,0 1.09375,-0.703125 0.351563,-0.722656 0.390625,-2.324219 h 2.441406 q -0.03906,2.636719 -1.035156,4.082031 -0.996094,1.425782 -2.773437,1.425782 -0.742188,0 -1.367188,-0.273438 -0.625,-0.273437 -1.347656,-0.917969 z"
         id="path7789" />
    </g>
    <path
       style="fill:none;stroke:#00ffff;stroke-width:0.5;stroke-linecap:butt;stroke-linejoin:miter;stroke-opacity:1"
       d="m 45,60 v 50"
       id="path7774" />
    <circle
       style="fill:#ff0000;stroke:none;stroke-width:1"
       id="circle7750"
       cx="45"
       cy="100"
       r="1.5" />
    <circle
       style="opacity:1;fill:#00ff00;stroke:none;stroke-width:1"
       id="circle8207"
       cx="28"
       cy="69"
       r="1" />
  </g>
  <text
     xml:space="preserve"
     style="font-size:16px;line-height:1.25;font-family:'DejaVu Sans';-inkscape-font-specification:'DejaVu Sans';letter-spacing:0px;white-space:pre"
     x="200"
     y="205"
     id="text9363"><tspan
       sodipodi:role="line"
       id="tspan10129"
       x="200"
       y="205"
       style="font-size:16px">Align their horizontal alignment</tspan><tspan
       sodipodi:role="line"
       id="tspan10131"
       x="200"
       y="225"
       style="font-size:16px">points (red circles).</tspan></text>
  <text
     xml:space="preserve"
     style="font-size:16px;line-height:1.25;font-family:'DejaVu Sans';-inkscape-font-specification:'DejaVu Sans';letter-spacing:0px"
     x="200"
     y="135"
     id="text9359"><tspan
       sodipodi:role="line"
       x="200"
       y="135"
       id="tspan9413">Start with the two glyphs.</tspan><tspan
       sodipodi:role="line"
       x="200"
       y="155"
       id="tspan10115">Note the tilde has zero width</tspan><tspan
       sodipodi:role="line"
       x="200"
       y="175"
       id="tspan21587">(and zero advance).</tspan></text>
  <g
     id="g9429"
     transform="translate(35,20)">
    <path
       style="fill:none;stroke:#00ffff;stroke-width:0.5;stroke-linecap:butt;stroke-linejoin:miter;stroke-opacity:1"
       d="M 60,205 H 83"
       id="path9417"
       sodipodi:nodetypes="cc" />
    <rect
       style="fill:none;stroke:#00ffff;stroke-width:0.5"
       id="rect9419"
       width="23"
       height="50"
       x="60"
       y="165" />
    <text
       xml:space="preserve"
       style="font-size:40px;line-height:1.25;font-family:'DejaVu Sans';-inkscape-font-specification:'DejaVu Sans';letter-spacing:0px"
       x="60"
       y="205"
       id="text9423"><tspan
         sodipodi:role="line"
         id="tspan9421"
         x="60"
         y="205">x</tspan></text>
    <circle
       style="fill:#ff0000;stroke:none;stroke-width:1"
       id="circle9425"
       cx="60"
       cy="205"
       r="1" />
    <circle
       style="fill:#00ff00;stroke:none;stroke-width:1"
       id="circle9427"
       cx="72"
       cy="180"
       r="1.5" />
  </g>
  <g
     id="g9441"
     transform="translate(50,125)">
    <g
       aria-label="x̃"
       id="g9433"
       style="font-size:40px;line-height:1.25;font-family:'DejaVu Sans';-inkscape-font-specification:'DejaVu Sans';letter-spacing:0px"
       transform="translate(-6,-6)">
      <path
         d="m 33.796875,73.242187 -1.113281,-1.074218 q -0.429688,-0.390625 -0.742188,-0.566407 -0.332031,-0.195312 -0.585937,-0.195312 -0.742188,0 -1.09375,0.722656 -0.351563,0.703125 -0.390625,2.304688 h -2.441407 q 0.03906,-2.636719 1.035157,-4.0625 0.996093,-1.445313 2.773437,-1.445313 0.742188,0 1.367188,0.273438 0.625,0.273437 1.347656,0.917968 l 1.113281,1.074219 q 0.429688,0.390625 0.761719,0.585938 0.3125,0.175781 0.566406,0.175781 0.742188,0 1.09375,-0.703125 0.351563,-0.722656 0.390625,-2.324219 h 2.441406 q -0.03906,2.636719 -1.035156,4.082031 -0.996094,1.425782 -2.773437,1.425782 -0.742188,0 -1.367188,-0.273438 -0.625,-0.273437 -1.347656,-0.917969 z"
         id="path9431" />
    </g>
    <path
       style="fill:none;stroke:#00ffff;stroke-width:0.5;stroke-linecap:butt;stroke-linejoin:miter;stroke-opacity:1"
       d="m 45,60 v 50"
       id="path9435" />
    <circle
       style="fill:#ff0000;stroke:none;stroke-width:1"
       id="circle9437"
       cx="45"
       cy="100"
       r="1.5" />
    <circle
       style="opacity:1;fill:#00ff00;stroke:none;stroke-width:1"
       id="circle9439"
       cx="28"
       cy="69"
       r="1.5" />
  </g>
  <text
     xml:space="preserve"
     style="font-size:16px;line-height:1.25;font-family:'DejaVu Sans';-inkscape-font-specification:'DejaVu Sans';letter-spacing:0px"
     x="200"
     y="275"
     id="text9463"><tspan
       sodipodi:role="line"
       id="tspan9461"
       x="200"
       y="275">Calculate shift needed to align</tspan><tspan
       sodipodi:role="line"
       x="200"
       y="295"
       id="tspan10123">anchors (green circles).</tspan><tspan
       sodipodi:role="line"
       x="200"
       y="315"
       id="tspan21595">d<tspan
   style="font-size:65%;baseline-shift:sub"
   id="tspan21599">anchor</tspan> = 'x' anchor position −</tspan><tspan
       sodipodi:role="line"
       x="200"
       y="335"
       id="tspan21597">              tilde anchor position</tspan></text>
  <g
     id="g9477"
     transform="translate(35,90)">
    <path
       style="fill:none;stroke:#00ffff;stroke-width:0.5;stroke-linecap:butt;stroke-linejoin:miter;stroke-opacity:1"
       d="M 60,205 H 83"
       id="path9465"
       sodipodi:nodetypes="cc" />
    <rect
       style="fill:none;stroke:#00ffff;stroke-width:0.5"
       id="rect9467"
       width="23"
       height="50"
       x="60"
       y="165" />
    <text
       xml:space="preserve"
       style="font-size:40px;line-height:1.25;font-family:'DejaVu Sans';-inkscape-font-specification:'DejaVu Sans';letter-spacing:0px"
       x="60"
       y="205"
       id="text9471"><tspan
         sodipodi:role="line"
         id="tspan9469"
         x="60"
         y="205">x</tspan></text>
    <circle
       style="fill:#ff0000;stroke:none;stroke-width:1"
       id="circle9473"
       cx="60"
       cy="205"
       r="1" />
    <circle
       style="fill:#00ff00;stroke:none;stroke-width:1"
       id="circle9475"
       cx="72"
       cy="180"
       r="1.5" />
  </g>
  <g
     id="g9489"
     transform="translate(50,195)">
    <path
       d="m 27.796875,67.242187 -1.113281,-1.074218 q -0.429688,-0.390625 -0.742188,-0.566407 -0.332031,-0.195312 -0.585937,-0.195312 -0.742188,0 -1.09375,0.722656 -0.351563,0.703125 -0.390625,2.304688 h -2.441407 q 0.03906,-2.636719 1.035157,-4.0625 0.996093,-1.445313 2.773437,-1.445313 0.742188,0 1.367188,0.273438 0.625,0.273437 1.347656,0.917968 l 1.113281,1.074219 q 0.429688,0.390625 0.761719,0.585938 0.3125,0.175781 0.566406,0.175781 0.742188,0 1.09375,-0.703125 0.351563,-0.722656 0.390625,-2.324219 h 2.441406 q -0.03906,2.636719 -1.035156,4.082031 -0.996094,1.425782 -2.773437,1.425782 -0.742188,0 -1.367188,-0.273438 -0.625,-0.273437 -1.347656,-0.917969 z"
       id="path9479"
       style="font-size:40px;line-height:1.25;font-family:'DejaVu Sans';-inkscape-font-specification:'DejaVu Sans';letter-spacing:0px;fill:none;stroke:#ff00ff;stroke-width:0.5" />
    <path
       style="fill:none;stroke:#00ffff;stroke-width:0.5;stroke-linecap:butt;stroke-linejoin:miter;stroke-opacity:1"
       d="m 45,60 v 50"
       id="path9483" />
    <circle
       style="fill:#ff0000;stroke:none;stroke-width:1"
       id="circle9485"
       cx="45"
       cy="100"
       r="1.5" />
    <circle
       style="opacity:0.5;fill:#00ff00;stroke:none;stroke-width:1"
       id="circle9487"
       cx="28"
       cy="69"
       r="1.5" />
    <g
       aria-label="x̃"
       id="g9493"
       style="font-size:40px;line-height:1.25;font-family:'DejaVu Sans';-inkscape-font-specification:'DejaVu Sans';letter-spacing:0px"
       transform="translate(23)">
      <path
         d="m 33.796875,73.242187 -1.113281,-1.074218 q -0.429688,-0.390625 -0.742188,-0.566407 -0.332031,-0.195312 -0.585937,-0.195312 -0.742188,0 -1.09375,0.722656 -0.351563,0.703125 -0.390625,2.304688 h -2.441407 q 0.03906,-2.636719 1.035157,-4.0625 0.996093,-1.445313 2.773437,-1.445313 0.742188,0 1.367188,0.273438 0.625,0.273437 1.347656,0.917968 l 1.113281,1.074219 q 0.429688,0.390625 0.761719,0.585938 0.3125,0.175781 0.566406,0.175781 0.742188,0 1.09375,-0.703125 0.351563,-0.722656 0.390625,-2.324219 h 2.441406 q -0.03906,2.636719 -1.035156,4.082031 -0.996094,1.425782 -2.773437,1.425782 -0.742188,0 -1.367188,-0.273438 -0.625,-0.273437 -1.347656,-0.917969 z"
         id="path9491" />
    </g>
    <path
       style="fill:none;stroke:#0000ff;stroke-width:0.5;stroke-linecap:butt;stroke-linejoin:miter;stroke-opacity:1;marker-end:url(#marker9518-1)"
       d="m 28,69 28.14112,5.85621"
       id="path9508"
       sodipodi:nodetypes="cc" />
    <text
       xml:space="preserve"
       style="font-size:16px;line-height:1.25;font-family:'DejaVu Sans';-inkscape-font-specification:'DejaVu Sans';letter-spacing:0px;fill:#0000ff"
       x="5"
       y="80"
       id="text10107"><tspan
         sodipodi:role="line"
         id="tspan10105"
         x="5"
         y="80"><tspan
           style="font-size:12px"
           id="tspan10111">d</tspan><tspan
           style="font-size:8px;baseline-shift:sub;fill:#0000ff"
           id="tspan10109">anchor</tspan></tspan></text>
  </g>
</svg>
