<?xml version="1.0" encoding="UTF-8" standalone="no"?>
<svg
   xmlns:dc="http://purl.org/dc/elements/1.1/"
   xmlns:cc="http://creativecommons.org/ns#"
   xmlns:rdf="http://www.w3.org/1999/02/22-rdf-syntax-ns#"
   xmlns:svg="http://www.w3.org/2000/svg"
   xmlns="http://www.w3.org/2000/svg"
   xmlns:xlink="http://www.w3.org/1999/xlink"
   xmlns:sodipodi="http://sodipodi.sourceforge.net/DTD/sodipodi-0.dtd"
   xmlns:inkscape="http://www.inkscape.org/namespaces/inkscape"
   width="600"
   height="600"
   id="svg2"
   version="1.1"
   inkscape:version="1.0.2 (e86c870879, 2021-01-15)"
   sodipodi:docname="vertical_upright_glyph_placement.svg"
   viewBox="0 0 600 600">
  <defs
     id="defs4">
    <marker
       style="overflow:visible"
       id="marker5418"
       refX="0"
       refY="0"
       orient="auto"
       inkscape:stockid="Arrow1Send"
       inkscape:isstock="true">
      <path
         transform="matrix(-0.2,0,0,-0.2,-1.2,0)"
         style="fill:#000000;fill-opacity:1;fill-rule:evenodd;stroke:#000000;stroke-width:1pt;stroke-opacity:1"
         d="M 0,0 5,-5 -12.5,0 5,5 Z"
         id="path5416" />
    </marker>
    <marker
       style="overflow:visible"
       id="marker5262"
       refX="0"
       refY="0"
       orient="auto"
       inkscape:stockid="Arrow1Send"
       inkscape:isstock="true"
       inkscape:collect="always">
      <path
         transform="matrix(-0.2,0,0,-0.2,-1.2,0)"
         style="fill:#000000;fill-opacity:1;fill-rule:evenodd;stroke:#000000;stroke-width:1pt;stroke-opacity:1"
         d="M 0,0 5,-5 -12.5,0 5,5 Z"
         id="path5260" />
    </marker>
    <marker
       style="overflow:visible"
       id="marker4303"
       refX="0"
       refY="0"
       orient="auto"
       inkscape:stockid="Arrow1Send"
       inkscape:isstock="true"
       inkscape:collect="always">
      <path
         transform="matrix(-0.2,0,0,-0.2,-1.2,0)"
         style="fill:#000000;fill-opacity:1;fill-rule:evenodd;stroke:#000000;stroke-width:1pt;stroke-opacity:1"
         d="M 0,0 5,-5 -12.5,0 5,5 Z"
         id="path4301" />
    </marker>
    <marker
       style="overflow:visible"
       id="marker4293"
       refX="0"
       refY="0"
       orient="auto"
       inkscape:stockid="Arrow1Sstart"
       inkscape:isstock="true">
      <path
         transform="matrix(0.2,0,0,0.2,1.2,0)"
         style="fill:#000000;fill-opacity:1;fill-rule:evenodd;stroke:#000000;stroke-width:1pt;stroke-opacity:1"
         d="M 0,0 5,-5 -12.5,0 5,5 Z"
         id="path4291" />
    </marker>
    <marker
       style="overflow:visible"
       id="marker3566"
       refX="0"
       refY="0"
       orient="auto"
       inkscape:stockid="Arrow1Send"
       inkscape:isstock="true">
      <path
         transform="matrix(-0.2,0,0,-0.2,-1.2,0)"
         style="fill:#000000;fill-opacity:1;fill-rule:evenodd;stroke:#000000;stroke-width:1pt;stroke-opacity:1"
         d="M 0,0 5,-5 -12.5,0 5,5 Z"
         id="path3564" />
    </marker>
    <marker
       style="overflow:visible"
       id="marker3556"
       refX="0"
       refY="0"
       orient="auto"
       inkscape:stockid="Arrow1Send"
       inkscape:isstock="true">
      <path
         transform="matrix(-0.2,0,0,-0.2,-1.2,0)"
         style="fill:#000000;fill-opacity:1;fill-rule:evenodd;stroke:#000000;stroke-width:1pt;stroke-opacity:1"
         d="M 0,0 5,-5 -12.5,0 5,5 Z"
         id="path3554" />
    </marker>
    <marker
       style="overflow:visible"
       id="marker3546"
       refX="0"
       refY="0"
       orient="auto"
       inkscape:stockid="Arrow1Send"
       inkscape:isstock="true">
      <path
         transform="matrix(-0.2,0,0,-0.2,-1.2,0)"
         style="fill:#000000;fill-opacity:1;fill-rule:evenodd;stroke:#000000;stroke-width:1pt;stroke-opacity:1"
         d="M 0,0 5,-5 -12.5,0 5,5 Z"
         id="path3544" />
    </marker>
    <marker
       style="overflow:visible"
       id="marker3536"
       refX="0"
       refY="0"
       orient="auto"
       inkscape:stockid="Arrow1Sstart"
       inkscape:isstock="true">
      <path
         transform="matrix(0.2,0,0,0.2,1.2,0)"
         style="fill:#000000;fill-opacity:1;fill-rule:evenodd;stroke:#000000;stroke-width:1pt;stroke-opacity:1"
         d="M 0,0 5,-5 -12.5,0 5,5 Z"
         id="path3534" />
    </marker>
    <marker
       style="overflow:visible"
       id="marker2805"
       refX="0"
       refY="0"
       orient="auto"
       inkscape:stockid="Arrow1Send"
       inkscape:isstock="true">
      <path
         transform="matrix(-0.2,0,0,-0.2,-1.2,0)"
         style="fill:#000000;fill-opacity:1;fill-rule:evenodd;stroke:#000000;stroke-width:1pt;stroke-opacity:1"
         d="M 0,0 5,-5 -12.5,0 5,5 Z"
         id="path2803" />
    </marker>
    <marker
       style="overflow:visible"
       id="marker2795"
       refX="0"
       refY="0"
       orient="auto"
       inkscape:stockid="Arrow1Send"
       inkscape:isstock="true">
      <path
         transform="matrix(-0.2,0,0,-0.2,-1.2,0)"
         style="fill:#000000;fill-opacity:1;fill-rule:evenodd;stroke:#000000;stroke-width:1pt;stroke-opacity:1"
         d="M 0,0 5,-5 -12.5,0 5,5 Z"
         id="path2793" />
    </marker>
    <marker
       style="overflow:visible"
       id="marker2186"
       refX="0"
       refY="0"
       orient="auto"
       inkscape:stockid="Arrow1Mstart"
       inkscape:isstock="true">
      <path
         transform="matrix(0.4,0,0,0.4,4,0)"
         style="fill:#000000;fill-opacity:1;fill-rule:evenodd;stroke:#000000;stroke-width:1pt;stroke-opacity:1"
         d="M 0,0 5,-5 -12.5,0 5,5 Z"
         id="path2184" />
    </marker>
    <marker
       style="overflow:visible"
       id="marker2146"
       refX="0"
       refY="0"
       orient="auto"
       inkscape:stockid="Arrow1Mend"
       inkscape:isstock="true">
      <path
         transform="matrix(-0.4,0,0,-0.4,-4,0)"
         style="fill:#ff00ff;fill-opacity:1;fill-rule:evenodd;stroke:#ff00ff;stroke-width:1pt;stroke-opacity:1"
         d="M 0,0 5,-5 -12.5,0 5,5 Z"
         id="path2144" />
    </marker>
    <marker
       style="overflow:visible"
       id="marker2112"
       refX="0"
       refY="0"
       orient="auto"
       inkscape:stockid="Arrow1Mend"
       inkscape:isstock="true">
      <path
         transform="matrix(-0.4,0,0,-0.4,-4,0)"
         style="fill:#000000;fill-opacity:1;fill-rule:evenodd;stroke:#000000;stroke-width:1pt;stroke-opacity:1"
         d="M 0,0 5,-5 -12.5,0 5,5 Z"
         id="path2110" />
    </marker>
    <marker
       style="overflow:visible"
       id="marker12954"
       refX="0"
       refY="0"
       orient="auto"
       inkscape:stockid="Arrow2Lend"
       inkscape:isstock="true"
       inkscape:collect="always">
      <path
         transform="matrix(-1.1,0,0,-1.1,-1.1,0)"
         d="M 8.7185878,4.0337352 -2.2072895,0.01601326 8.7185884,-4.0017078 c -1.7454984,2.3720609 -1.7354408,5.6174519 -6e-7,8.035443 z"
         style="fill:#000000;fill-opacity:1;fill-rule:evenodd;stroke:#000000;stroke-width:0.625;stroke-linejoin:round;stroke-opacity:1"
         id="path12952" />
    </marker>
    <marker
       style="overflow:visible"
       id="marker13212"
       refX="0"
       refY="0"
       orient="auto"
       inkscape:stockid="Arrow2Lend"
       inkscape:isstock="true">
      <path
         transform="matrix(-1.1,0,0,-1.1,-1.1,0)"
         d="M 8.7185878,4.0337352 -2.2072895,0.01601326 8.7185884,-4.0017078 c -1.7454984,2.3720609 -1.7354408,5.6174519 -6e-7,8.035443 z"
         style="fill:#000000;fill-opacity:1;fill-rule:evenodd;stroke:#000000;stroke-width:0.625;stroke-linejoin:round;stroke-opacity:1"
         id="path13210" />
    </marker>
  </defs>
  <sodipodi:namedview
     id="base"
     pagecolor="#ffffff"
     bordercolor="#666666"
     borderopacity="1.0"
     inkscape:pageopacity="0.0"
     inkscape:pageshadow="2"
     inkscape:zoom="1"
     inkscape:cx="300"
     inkscape:cy="300"
     inkscape:document-units="px"
     inkscape:current-layer="svg2"
     showgrid="true"
     showguides="true"
     inkscape:guide-bbox="true"
     inkscape:window-width="831"
     inkscape:window-height="813"
     inkscape:window-x="49"
     inkscape:window-y="126"
     inkscape:window-maximized="0"
     inkscape:document-rotation="0"
     inkscape:snap-text-baseline="true"
     inkscape:snap-center="true"
     inkscape:object-nodes="true"
     inkscape:snap-nodes="true"
     inkscape:lockguides="true">
    <sodipodi:guide
       orientation="1,0"
       position="300,300"
       id="guide10"
       inkscape:locked="true" />
    <inkscape:grid
       type="xygrid"
       id="grid12"
       empspacing="5"
       visible="true"
       enabled="true"
       snapvisiblegridlinesonly="true"
       spacingx="1"
       spacingy="1" />
    <sodipodi:guide
       orientation="1,0"
       position="500,300"
       id="guide14"
       inkscape:locked="true" />
    <sodipodi:guide
       orientation="1,0"
       position="450,0"
       id="guide16"
       inkscape:locked="true" />
    <sodipodi:guide
       orientation="0,1"
       position="0,150"
       id="guide18"
       inkscape:locked="true" />
    <sodipodi:guide
       position="200,300"
       orientation="1,0"
       id="guide4051"
       inkscape:locked="true" />
    <sodipodi:guide
       position="400,300"
       orientation="1,0"
       id="guide4053"
       inkscape:locked="true" />
    <sodipodi:guide
       position="100,300"
       orientation="1,0"
       id="guide4765"
       inkscape:locked="true" />
    <sodipodi:guide
       position="0,475"
       orientation="0,-1"
       id="guide8265" />
  </sodipodi:namedview>
  <metadata
     id="metadata7">
    <rdf:RDF>
      <cc:Work
         rdf:about="">
        <dc:format>image/svg+xml</dc:format>
        <dc:type
           rdf:resource="http://purl.org/dc/dcmitype/StillImage" />
        <dc:title></dc:title>
      </cc:Work>
    </rdf:RDF>
  </metadata>
  <g
     inkscape:label="Layer 1"
     inkscape:groupmode="layer"
     id="layer1" />
  <g
     id="g386"
     transform="translate(0,150)">
    <rect
       style="fill:none;stroke:#0000ff;stroke-width:1"
       id="rect3748"
       width="50"
       height="50"
       x="75"
       y="100" />
    <path
       style="fill:none;stroke:#000000;stroke-width:0.5;stroke-linecap:butt;stroke-linejoin:miter;stroke-opacity:1"
       d="M 137,100 H 127"
       id="path4055"
       sodipodi:nodetypes="cc" />
    <g
       id="g3530"
       transform="translate(40)">
      <text
         xml:space="preserve"
         style="font-size:40px;line-height:1.25;font-family:'DejaVu Sans';-inkscape-font-specification:'DejaVu Sans';letter-spacing:0px;fill:none;stroke:#800080;stroke-width:1;"
         x="60"
         y="100"
         id="text3522"><tspan
           sodipodi:role="line"
           id="tspan3520"
           x="60"
           y="100">A</tspan></text>
      <rect
         style="fill:none;stroke:#00ffff;stroke-width:1"
         id="rect3518"
         width="27"
         height="50"
         x="60"
         y="60" />
      <path
         style="fill:none;stroke:#00ffff;stroke-width:1;stroke-linecap:butt;stroke-linejoin:miter;stroke-opacity:1"
         d="M 60,100 H 87"
         id="path3524"
         sodipodi:nodetypes="cc" />
      <circle
         style="fill:#ff0000;stroke:none;stroke-width:1"
         id="circle3526"
         cx="60"
         cy="100"
         r="1.5" />
    </g>
    <g
       id="g3944"
       transform="translate(26.5,40)">
      <rect
         style="fill:none;stroke:#00ffff;stroke-width:0.5"
         id="rect3932"
         width="27"
         height="50"
         x="60"
         y="60" />
      <text
         xml:space="preserve"
         style="font-size:40px;line-height:1.25;font-family:'DejaVu Sans';-inkscape-font-specification:'DejaVu Sans';letter-spacing:0px"
         x="60"
         y="100"
         id="text3936"><tspan
           sodipodi:role="line"
           id="tspan3934"
           x="60"
           y="100">A</tspan></text>
      <path
         style="fill:none;stroke:#00ffff;stroke-width:0.5;stroke-linecap:butt;stroke-linejoin:miter;stroke-opacity:1"
         d="M 60,100 H 87"
         id="path3938"
         sodipodi:nodetypes="cc" />
      <circle
         style="fill:#ff00ff;stroke:none;stroke-width:1"
         id="circle3942"
         cx="73.5"
         cy="110"
         r="1.5" />
    </g>
    <path
       style="fill:none;stroke:#000000;stroke-width:0.5;stroke-linecap:butt;stroke-linejoin:miter;stroke-opacity:1"
       d="M 137,150 H 127"
       id="path4057"
       sodipodi:nodetypes="cc" />
    <text
       xml:space="preserve"
       style="font-size:8px;line-height:1.25;font-family:'DejaVu Sans';-inkscape-font-specification:'DejaVu Sans';text-align:center;letter-spacing:0px;text-anchor:middle"
       x="-124.81836"
       y="147.98242"
       id="text4061"
       transform="rotate(-90)"><tspan
         sodipodi:role="line"
         id="tspan4059"
         x="-124.81836"
         y="147.98242">Advance</tspan></text>
    <path
       style="fill:none;stroke:#000000;stroke-width:0.5;stroke-linecap:butt;stroke-linejoin:miter;stroke-opacity:1;marker-end:url(#marker4303)"
       d="m 135,100 v 49"
       id="path4075"
       sodipodi:nodetypes="cc" />
    <g
       id="g7992"
       transform="translate(26.5,40)">
      <rect
         style="fill:none;stroke:#00ffff;stroke-width:1"
         id="rect7982"
         width="27"
         height="50"
         x="60"
         y="60" />
      <text
         xml:space="preserve"
         style="font-size:40px;line-height:1.25;font-family:'DejaVu Sans';-inkscape-font-specification:'DejaVu Sans';letter-spacing:0px"
         x="60"
         y="100"
         id="text7986"><tspan
           sodipodi:role="line"
           id="tspan7984"
           x="60"
           y="100">A</tspan></text>
      <path
         style="fill:none;stroke:#00ffff;stroke-width:1;stroke-linecap:butt;stroke-linejoin:miter;stroke-opacity:1"
         d="M 60,100 H 87"
         id="path7988"
         sodipodi:nodetypes="cc" />
      <circle
         style="fill:#ff00ff;stroke:none;stroke-width:1"
         id="circle7990"
         cx="73.5"
         cy="110"
         r="1.5" />
    </g>
  </g>
  <text
     xml:space="preserve"
     style="font-size:8px;line-height:1.25;font-family:'DejaVu Sans';-inkscape-font-specification:'DejaVu Sans';letter-spacing:0px"
     x="40"
     y="325"
     id="text4543"><tspan
       sodipodi:role="line"
       id="tspan4541"
       x="40"
       y="325">hb offset_x: −glyph_width/2.0</tspan><tspan
       sodipodi:role="line"
       x="40"
       y="335"
       id="tspan7641">hb offset_y: −font_ascent</tspan></text>
  <text
     xml:space="preserve"
     style="font-size:24px;line-height:1.25;font-family:'DejaVu Sans';-inkscape-font-specification:'DejaVu Sans';text-align:center;letter-spacing:0px;text-anchor:middle"
     x="300"
     y="40"
     id="text344"><tspan
       sodipodi:role="line"
       id="tspan342"
       x="300"
       y="40">Vertical Upright Glyph Placement</tspan></text>
  <text
     xml:space="preserve"
     style="font-size:16px;line-height:1.25;font-family:'DejaVu Sans';-inkscape-font-specification:'DejaVu Sans';text-align:center;letter-spacing:0px;text-anchor:middle"
     x="113.82422"
     y="80"
     id="text4769"><tspan
       sodipodi:role="line"
       id="tspan4767"
       x="113.82422"
       y="80">Font with</tspan><tspan
       sodipodi:role="line"
       x="113.82422"
       y="100"
       id="tspan4771">vertical metrics</tspan></text>
  <text
     xml:space="preserve"
     style="font-size:16px;line-height:1.25;font-family:'DejaVu Sans';-inkscape-font-specification:'DejaVu Sans';text-align:center;letter-spacing:0px;text-anchor:middle"
     x="400.14844"
     y="80.964844"
     id="text4777"><tspan
       sodipodi:role="line"
       x="400.14844"
       y="80.964844"
       id="tspan4775">Font without vertical metrics</tspan></text>
  <text
     xml:space="preserve"
     style="font-size:14px;line-height:1.25;font-family:'DejaVu Sans';-inkscape-font-specification:'DejaVu Sans';text-align:center;letter-spacing:0px;text-anchor:middle"
     x="300"
     y="110"
     id="text4783"><tspan
       sodipodi:role="line"
       x="300"
       y="110"
       id="tspan4781">Harfbuzz FreeType</tspan><tspan
       sodipodi:role="line"
       x="300"
       y="127.5"
       id="tspan4785">Functions</tspan></text>
  <text
     xml:space="preserve"
     style="font-size:14px;line-height:1.25;font-family:'DejaVu Sans';-inkscape-font-specification:'DejaVu Sans';text-align:center;letter-spacing:0px;text-anchor:middle"
     x="500"
     y="110"
     id="text4791"><tspan
       sodipodi:role="line"
       x="500"
       y="110"
       id="tspan4787">Harfbuzz OpenType</tspan><tspan
       sodipodi:role="line"
       x="500"
       y="127.5"
       id="tspan4789">Functions</tspan></text>
  <g
     id="g5252"
     transform="translate(200,150)">
    <rect
       style="fill:none;stroke:#0000ff;stroke-width:1"
       id="rect5216"
       width="50"
       height="50"
       x="75"
       y="100" />
    <path
       style="fill:none;stroke:#000000;stroke-width:0.5;stroke-linecap:butt;stroke-linejoin:miter;stroke-opacity:1"
       d="M 137,100 H 127"
       id="path5242"
       sodipodi:nodetypes="cc" />
    <g
       id="g5228"
       transform="translate(40)">
      <text
         xml:space="preserve"
         style="font-size:40px;line-height:1.25;font-family:'DejaVu Sans';-inkscape-font-specification:'DejaVu Sans';letter-spacing:0px;fill:none;stroke:#800080;stroke-width:1;"
         x="60"
         y="100"
         id="text5222"><tspan
           sodipodi:role="line"
           id="tspan5220"
           x="60"
           y="100">A</tspan></text>
      <rect
         style="fill:none;stroke:#00ffff;stroke-width:1"
         id="rect5218"
         width="27"
         height="50"
         x="60"
         y="60" />
      <path
         style="fill:none;stroke:#00ffff;stroke-width:1;stroke-linecap:butt;stroke-linejoin:miter;stroke-opacity:1"
         d="M 60,100 H 87"
         id="path5224"
         sodipodi:nodetypes="cc" />
      <circle
         style="fill:#ff0000;stroke:none;stroke-width:1"
         id="circle5226"
         cx="60"
         cy="100"
         r="1.5" />
    </g>
    <g
       id="g5240"
       transform="translate(26.5,39.710982)">
      <rect
         style="fill:none;stroke:#00ffff;stroke-width:1"
         id="rect5230"
         width="27"
         height="50"
         x="60"
         y="60" />
      <text
         xml:space="preserve"
         style="font-size:40px;line-height:1.25;font-family:'DejaVu Sans';-inkscape-font-specification:'DejaVu Sans';letter-spacing:0px"
         x="60"
         y="100"
         id="text5234"><tspan
           sodipodi:role="line"
           id="tspan5232"
           x="60"
           y="100">A</tspan></text>
      <path
         style="fill:none;stroke:#00ffff;stroke-width:1;stroke-linecap:butt;stroke-linejoin:miter;stroke-opacity:1"
         d="M 60,100 H 87"
         id="path5236"
         sodipodi:nodetypes="cc" />
      <circle
         style="fill:#ff00ff;stroke:none;stroke-width:1"
         id="circle5238"
         cx="73.5"
         cy="110"
         r="1.5" />
    </g>
    <path
       style="fill:none;stroke:#000000;stroke-width:0.5;stroke-linecap:butt;stroke-linejoin:miter;stroke-opacity:1"
       d="M 137,150 H 127"
       id="path5244"
       sodipodi:nodetypes="cc" />
    <text
       xml:space="preserve"
       style="font-size:8px;line-height:1.25;font-family:'DejaVu Sans';-inkscape-font-specification:'DejaVu Sans';text-align:center;letter-spacing:0px;text-anchor:middle"
       x="-124.81836"
       y="147.98242"
       id="text5248"
       transform="rotate(-90)"><tspan
         sodipodi:role="line"
         id="tspan5246"
         x="-124.81836"
         y="147.98242">Advance</tspan></text>
    <path
       style="fill:none;stroke:#000000;stroke-width:0.5;stroke-linecap:butt;stroke-linejoin:miter;stroke-opacity:1;marker-end:url(#marker5262)"
       d="m 135,100 v 49"
       id="path5250"
       sodipodi:nodetypes="cc" />
  </g>
  <text
     xml:space="preserve"
     style="font-size:8px;line-height:1.25;font-family:'DejaVu Sans';-inkscape-font-specification:'DejaVu Sans';letter-spacing:0px"
     x="220"
     y="325"
     id="text5258"><tspan
       sodipodi:role="line"
       id="tspan5254"
       x="220"
       y="325">hb offset_x: −glyph_width/2.0 </tspan><tspan
       sodipodi:role="line"
       x="220"
       y="335"
       id="tspan7652">hb offset_y: −vertical center of ink-rectangle −</tspan><tspan
       sodipodi:role="line"
       x="220"
       y="345"
       id="tspan7656">                    alphabetic baseline − 0.5 em</tspan></text>
  <g
     id="g5408"
     transform="translate(400,150)">
    <rect
       style="fill:none;stroke:#0000ff;stroke-width:1"
       id="rect5372"
       width="50"
       height="50"
       x="75"
       y="100" />
    <path
       style="fill:none;stroke:#000000;stroke-width:0.5;stroke-linecap:butt;stroke-linejoin:miter;stroke-opacity:1"
       d="M 137,100 H 127"
       id="path5398"
       sodipodi:nodetypes="cc" />
    <g
       id="g5384"
       transform="translate(40)">
      <text
         xml:space="preserve"
         style="font-size:40px;line-height:1.25;font-family:'DejaVu Sans';-inkscape-font-specification:'DejaVu Sans';letter-spacing:0px;fill:none;stroke:#800080;stroke-width:1;"
         x="60"
         y="100"
         id="text5378"><tspan
           sodipodi:role="line"
           id="tspan5376"
           x="60"
           y="100">A</tspan></text>
      <rect
         style="fill:none;stroke:#00ffff;stroke-width:1"
         id="rect5374"
         width="27"
         height="50"
         x="60"
         y="60" />
      <path
         style="fill:none;stroke:#00ffff;stroke-width:1;stroke-linecap:butt;stroke-linejoin:miter;stroke-opacity:1"
         d="M 60,100 H 87"
         id="path5380"
         sodipodi:nodetypes="cc" />
      <circle
         style="fill:#ff0000;stroke:none;stroke-width:1"
         id="circle5382"
         cx="60"
         cy="100"
         r="1.5" />
    </g>
    <g
       id="g5396"
       transform="translate(26.5,29.182536)">
      <rect
         style="fill:none;stroke:#00ffff;stroke-width:1"
         id="rect5386"
         width="27"
         height="50"
         x="60"
         y="60" />
      <text
         xml:space="preserve"
         style="font-size:40px;line-height:1.25;font-family:'DejaVu Sans';-inkscape-font-specification:'DejaVu Sans';letter-spacing:0px"
         x="60"
         y="100"
         id="text5390"><tspan
           sodipodi:role="line"
           id="tspan5388"
           x="60"
           y="100">A</tspan></text>
      <path
         style="fill:none;stroke:#00ffff;stroke-width:1;stroke-linecap:butt;stroke-linejoin:miter;stroke-opacity:1"
         d="M 60,100 H 87"
         id="path5392"
         sodipodi:nodetypes="cc" />
    </g>
    <path
       style="fill:none;stroke:#000000;stroke-width:0.5;stroke-linecap:butt;stroke-linejoin:miter;stroke-opacity:1"
       d="M 137,150 H 127"
       id="path5400"
       sodipodi:nodetypes="cc" />
    <text
       xml:space="preserve"
       style="font-size:8px;line-height:1.25;font-family:'DejaVu Sans';-inkscape-font-specification:'DejaVu Sans';text-align:center;letter-spacing:0px;text-anchor:middle"
       x="-124.81836"
       y="147.98242"
       id="text5404"
       transform="rotate(-90)"><tspan
         sodipodi:role="line"
         id="tspan5402"
         x="-124.81836"
         y="147.98242">Advance</tspan></text>
    <path
       style="fill:none;stroke:#000000;stroke-width:0.5;stroke-linecap:butt;stroke-linejoin:miter;stroke-opacity:1;marker-end:url(#marker5418)"
       d="m 135,100 v 49"
       id="path5406"
       sodipodi:nodetypes="cc" />
    <circle
       style="fill:#ff00ff;stroke:none;stroke-width:1"
       id="circle5394"
       cx="100"
       cy="150"
       r="1.5" />
  </g>
  <text
     xml:space="preserve"
     style="font-size:8px;line-height:1.25;font-family:'DejaVu Sans';-inkscape-font-specification:'DejaVu Sans';letter-spacing:0px"
     x="440"
     y="325"
     id="text5414"><tspan
       sodipodi:role="line"
       x="440"
       y="325"
       id="tspan5412">hb offset_x: −glyph_width/2.0</tspan><tspan
       sodipodi:role="line"
       x="440"
       y="335"
       id="tspan5719">hb offset_y: −glyph_ascent</tspan></text>
  <circle
     style="fill:#ff0000;stroke:none;stroke-width:1"
     id="circle5617"
     cx="486.5"
     cy="279.18256"
     r="1.5" />
  <circle
     style="fill:#ff0000;stroke:none;stroke-width:1"
     id="circle5619"
     cx="86.5"
     cy="290"
     r="1.5" />
  <circle
     style="fill:#ff0000;stroke:none;stroke-width:1"
     id="circle5584"
     cx="286.5"
     cy="289.71097"
     r="1.5" />
  <path
     style="fill:none;stroke:#000000;stroke-width:0.5;stroke-linecap:butt;stroke-linejoin:miter;stroke-opacity:1;marker-end:url(#marker12954)"
     d="M 25,50 V 15"
     id="path12944" />
  <path
     style="fill:none;stroke:#000000;stroke-width:0.5;stroke-linecap:butt;stroke-linejoin:miter;stroke-opacity:1;marker-end:url(#marker13212)"
     d="M 25,50 H 60"
     id="path13208"
     sodipodi:nodetypes="cc" />
  <text
     xml:space="preserve"
     x="54"
     y="60"
     id="text13558"
     style="font-style:italic;font-variant:normal;font-weight:normal;font-stretch:normal;font-family:'DejaVu Serif';-inkscape-font-specification:'DejaVu Serif Italic'"><tspan
       sodipodi:role="line"
       id="tspan13556"
       x="54"
       y="60">x</tspan></text>
  <text
     xml:space="preserve"
     x="15"
     y="20"
     id="text21492"
     style="font-style:italic;font-variant:normal;font-weight:normal;font-stretch:normal;font-family:'DejaVu Serif';-inkscape-font-specification:'DejaVu Serif Italic'"><tspan
       sodipodi:role="line"
       id="tspan21490"
       x="15"
       y="20">y</tspan></text>
  <g
     id="EmBox_Stack"
     transform="translate(0,25)">
    <g
       id="EmBox">
      <rect
         style="fill:none;stroke:#0000ff;stroke-width:1"
         id="rect3748-9"
         width="50"
         height="50"
         x="75"
         y="350" />
      <circle
         style="fill:#ff0000;stroke:none;stroke-width:1"
         id="circle7736"
         cx="100"
         cy="350"
         r="1.5" />
      <text
         xml:space="preserve"
         style="font-size:40px;line-height:1.25;font-family:'DejaVu Sans';-inkscape-font-specification:'DejaVu Sans';text-align:center;letter-spacing:0px;text-anchor:middle"
         x="254.9407"
         y="452.21964"
         id="text8217"><tspan
           sodipodi:role="line"
           id="tspan8215"
           x="254.9407"
           y="452.21964"></tspan></text>
    </g>
    <use
       x="0"
       y="0"
       xlink:href="#EmBox"
       id="use7957"
       transform="translate(0,50)"
       width="100%"
       height="100%" />
    <use
       x="0"
       y="0"
       xlink:href="#EmBox"
       id="use7959"
       transform="translate(0,100)"
       width="100%"
       height="100%" />
    <use
       x="0"
       y="0"
       xlink:href="#EmBox"
       id="use7961"
       transform="translate(0,150)"
       width="100%"
       height="100%" />
  </g>
  <use
     x="0"
     y="0"
     xlink:href="#EmBox_Stack"
     id="use7972"
     transform="translate(200)"
     width="100%"
     height="100%" />
  <use
     x="0"
     y="0"
     xlink:href="#EmBox_Stack"
     id="use7974"
     transform="translate(400)"
     width="100%"
     height="100%" />
  <g
     id="g7992-8"
     transform="translate(26.5,315)"
     style="stroke-width:1">
    <rect
       style="fill:none;stroke:#00ffff;stroke-width:1"
       id="rect7982-8"
       width="27"
       height="50"
       x="60"
       y="60" />
    <path
       style="fill:none;stroke:#00ffff;stroke-width:1;stroke-linecap:butt;stroke-linejoin:miter;stroke-opacity:1"
       d="M 60,100 H 87"
       id="path7988-9"
       sodipodi:nodetypes="cc" />
  </g>
  <rect
     style="fill:none;stroke:#00ffff;stroke-width:1"
     id="rect7982-8-8"
     width="27"
     height="50"
     x="86.5"
     y="425" />
  <rect
     style="fill:none;stroke:#00ffff;stroke-width:1"
     id="rect7982-8-5"
     width="27"
     height="50"
     x="86.5"
     y="475" />
  <rect
     style="fill:none;stroke:#00ffff;stroke-width:1"
     id="rect7982-8-6"
     width="27"
     height="50"
     x="86.5"
     y="525" />
  <path
     style="fill:none;stroke:#00ffff;stroke-width:1;stroke-linecap:butt;stroke-linejoin:miter;stroke-opacity:1"
     d="m 86.5,465 h 27"
     id="path7988-9-1"
     sodipodi:nodetypes="cc" />
  <path
     style="fill:none;stroke:#00ffff;stroke-width:1;stroke-linecap:butt;stroke-linejoin:miter;stroke-opacity:1"
     d="m 86.5,515 h 27"
     id="path7988-9-15"
     sodipodi:nodetypes="cc" />
  <path
     style="fill:none;stroke:#00ffff;stroke-width:1;stroke-linecap:butt;stroke-linejoin:miter;stroke-opacity:1"
     d="m 86.5,565 h 27"
     id="path7988-9-9"
     sodipodi:nodetypes="cc" />
  <text
     xml:space="preserve"
     style="font-size:40px;line-height:1.25;font-family:'DejaVu Sans';-inkscape-font-specification:'DejaVu Sans';text-align:center;letter-spacing:0px;text-anchor:middle;stroke-width:1;"
     x="99.859375"
     y="415"
     id="text7986-5"><tspan
       sodipodi:role="line"
       id="tspan7984-0"
       x="99.859375"
       y="415">A</tspan><tspan
       sodipodi:role="line"
       x="99.859375"
       y="465"
       id="tspan8148">g</tspan><tspan
       sodipodi:role="line"
       x="99.859375"
       y="515"
       id="tspan8150">e</tspan><tspan
       sodipodi:role="line"
       x="99.859375"
       y="565"
       id="tspan8152">.</tspan></text>
  <text
     xml:space="preserve"
     style="font-size:40px;line-height:1.25;font-family:'DejaVu Sans';-inkscape-font-specification:'DejaVu Sans';text-align:center;letter-spacing:0px;text-anchor:middle"
     x="300"
     y="415"
     id="text8198"><tspan
       sodipodi:role="line"
       id="tspan8190"
       x="300"
       y="415">A</tspan><tspan
       sodipodi:role="line"
       x="300"
       y="415"
       id="tspan8196"><tspan
         id="tspan8221" /></tspan></text>
  <text
     xml:space="preserve"
     style="font-size:40px;line-height:1.25;font-family:'DejaVu Sans';-inkscape-font-specification:'DejaVu Sans';text-align:center;letter-spacing:0px;text-anchor:middle"
     x="300"
     y="457"
     id="text8202"><tspan
       sodipodi:role="line"
       id="tspan8200"
       x="300"
       y="457">g</tspan></text>
  <text
     xml:space="preserve"
     style="font-size:40px;line-height:1.25;font-family:'DejaVu Sans';-inkscape-font-specification:'DejaVu Sans';text-align:center;letter-spacing:0px;text-anchor:middle"
     x="300"
     y="511"
     id="text8225"><tspan
       sodipodi:role="line"
       id="tspan8223"
       x="300"
       y="511">e</tspan></text>
  <text
     xml:space="preserve"
     style="font-size:40px;line-height:1.25;font-family:'DejaVu Sans';-inkscape-font-specification:'DejaVu Sans';text-align:center;letter-spacing:0px;text-anchor:middle"
     x="300"
     y="553.25"
     id="text8229"><tspan
       sodipodi:role="line"
       id="tspan8227"
       x="300"
       y="553.25">.</tspan></text>
  <text
     xml:space="preserve"
     style="font-size:40px;line-height:1.25;font-family:'DejaVu Sans';-inkscape-font-specification:'DejaVu Sans';text-align:center;letter-spacing:0px;text-anchor:middle"
     x="500"
     y="404.46655"
     id="text8233"><tspan
       sodipodi:role="line"
       id="tspan8231"
       x="500"
       y="404.46655">A</tspan></text>
  <text
     xml:space="preserve"
     style="font-size:40px;line-height:1.25;font-family:'DejaVu Sans';-inkscape-font-specification:'DejaVu Sans';text-align:center;letter-spacing:0px;text-anchor:middle"
     x="500"
     y="446.84125"
     id="text8237"><tspan
       sodipodi:role="line"
       id="tspan8235"
       x="500"
       y="446.84125">g</tspan></text>
  <text
     xml:space="preserve"
     style="font-size:40px;line-height:1.25;font-family:'DejaVu Sans';-inkscape-font-specification:'DejaVu Sans';text-align:center;letter-spacing:0px;text-anchor:middle"
     x="500"
     y="497.25"
     id="text8241"><tspan
       sodipodi:role="line"
       id="tspan8239"
       x="500"
       y="497.25">e</tspan></text>
  <text
     xml:space="preserve"
     style="font-size:40px;line-height:1.25;font-family:'DejaVu Sans';-inkscape-font-specification:'DejaVu Sans';text-align:center;letter-spacing:0px;text-anchor:middle"
     x="500.01953"
     y="529.48047"
     id="text8245"><tspan
       sodipodi:role="line"
       id="tspan8243"
       x="500.01953"
       y="529.48047">.</tspan></text>
  <text
     xml:space="preserve"
     style="font-size:14px;line-height:1.25;font-family:'DejaVu Sans';-inkscape-font-specification:'DejaVu Sans';text-align:center;letter-spacing:0px;text-anchor:middle"
     x="100"
     y="175"
     id="text8269"><tspan
       sodipodi:role="line"
       id="tspan8267"
       x="100"
       y="175">Glyph &quot;em-box&quot; aligned</tspan><tspan
       sodipodi:role="line"
       x="100"
       y="192.5"
       id="tspan8271">with grid.</tspan></text>
  <text
     xml:space="preserve"
     style="font-size:14px;line-height:1.25;font-family:'DejaVu Sans';-inkscape-font-specification:'DejaVu Sans';text-align:center;letter-spacing:0px;text-anchor:middle"
     x="300"
     y="175"
     id="text8277"><tspan
       sodipodi:role="line"
       x="300"
       y="175"
       id="tspan8275">Glyph visually centered</tspan><tspan
       sodipodi:role="line"
       x="300"
       y="192.5"
       id="tspan8281">in grid box.</tspan></text>
  <text
     xml:space="preserve"
     style="font-size:14px;line-height:1.25;font-family:'DejaVu Sans';-inkscape-font-specification:'DejaVu Sans';text-align:center;letter-spacing:0px;text-anchor:middle"
     x="500"
     y="175"
     id="text8287"><tspan
       sodipodi:role="line"
       x="500"
       y="175"
       id="tspan8285">Glyph ink top aligned</tspan><tspan
       sodipodi:role="line"
       x="500"
       y="192.5"
       id="tspan8291">with grid.</tspan></text>
  <text
     xml:space="preserve"
     style="font-size:12px;line-height:1.25;font-family:'DejaVu Sans';-inkscape-font-specification:'DejaVu Sans';text-align:center;letter-spacing:0px;text-anchor:middle;"
     x="185"
     y="225"
     id="text8295"><tspan
       sodipodi:role="line"
       x="185"
       y="225"
       id="tspan8299">Position before</tspan><tspan
       sodipodi:role="line"
       x="185"
       y="237.5"
       id="tspan8334">shaping</tspan></text>
  <path
     style="fill:none;stroke:#ff00ff;stroke-width:1px;stroke-linecap:butt;stroke-linejoin:miter;stroke-opacity:1;marker-end:url(#marker2146)"
     d="m 151,231 c -9,5 -15,5 -24,5"
     id="path8301"
     sodipodi:nodetypes="cc" />
</svg>
